{
  "3": {
    "name": "Aachen",
    "latitude": "50.7827",
    "longitude": "6.0941",
    "geohash": "u1h2fstwdv6m",
    "mosmix_id": "10501"
  },
  "44": {
    "name": "Gro\u00dfenkneten",
    "latitude": "52.9336",
    "longitude": "8.2370",
    "geohash": "u1mv5kq0840r",
    "mosmix_id": null
  },
  "71": {
    "name": "Albstadt-Badkap",
    "latitude": "48.2156",
    "longitude": "8.9784",
    "geohash": "u0w6k33u5zk3",
    "mosmix_id": "Q751"
  },
  "73": {
    "name": "Aldersbach-Kriestorf",
    "latitude": "48.6159",
    "longitude": "13.0506",
    "geohash": "u29k8fr0jh8e",
    "mosmix_id": "P681"
  },
  "78": {
    "name": "Alfhausen",
    "latitude": "52.4853",
    "longitude": "7.9126",
    "geohash": "u1mds49v0cn1",
    "mosmix_id": "E626"
  },
  "91": {
    "name": "Alsfeld-Eifa",
    "latitude": "50.7446",
    "longitude": "9.3450",
    "geohash": "u1n8stubdr11",
    "mosmix_id": "L464"
  },
  "96": {
    "name": "Neuruppin-Alt Ruppin",
    "latitude": "52.9437",
    "longitude": "12.8518",
    "geohash": "u33jhqn7kth8",
    "mosmix_id": "10271"
  },
  "131": {
    "name": "Geringswalde-Altgeringswalde",
    "latitude": "51.0881",
    "longitude": "12.9326",
    "geohash": "u314wk31z2j7",
    "mosmix_id": null
  },
  "142": {
    "name": "Altom\u00fcnster-Maisbrunn",
    "latitude": "48.4060",
    "longitude": "11.3117",
    "geohash": "u2853khcmsqv",
    "mosmix_id": null
  },
  "150": {
    "name": "Alzey",
    "latitude": "49.7273",
    "longitude": "8.1164",
    "geohash": "u0vfbsw4tbd6",
    "mosmix_id": "K2614"
  },
  "151": {
    "name": "Amberg-Unterammersricht",
    "latitude": "49.4691",
    "longitude": "11.8546",
    "geohash": "u2b3mv862hw7",
    "mosmix_id": null
  },
  "154": {
    "name": "Amerang-Pfaffing",
    "latitude": "48.0197",
    "longitude": "12.2924",
    "geohash": "u289ptxp18vu",
    "mosmix_id": "P874"
  },
  "161": {
    "name": "Andernach",
    "latitude": "50.4237",
    "longitude": "7.4202",
    "geohash": "u0vqbg75r4yn",
    "mosmix_id": "10520"
  },
  "164": {
    "name": "Angerm\u00fcnde",
    "latitude": "53.0316",
    "longitude": "13.9908",
    "geohash": "u33vwq5g3qb8",
    "mosmix_id": "10291"
  },
  "167": {
    "name": "Anklam",
    "latitude": "53.8412",
    "longitude": "13.6846",
    "geohash": "u39dr3kzdr1k",
    "mosmix_id": "N2386"
  },
  "183": {
    "name": "Arkona",
    "latitude": "54.6792",
    "longitude": "13.4343",
    "geohash": "u39x1dn93vsj",
    "mosmix_id": "10091"
  },
  "191": {
    "name": "Arnstein-M\u00fcdesheim",
    "latitude": "49.9695",
    "longitude": "9.9113",
    "geohash": "u0zh389jqjby",
    "mosmix_id": "P125"
  },
  "198": {
    "name": "Artern",
    "latitude": "51.3745",
    "longitude": "11.2920",
    "geohash": "u30h2bqw4svm",
    "mosmix_id": "10460"
  },
  "217": {
    "name": "Attenkam",
    "latitude": "47.8774",
    "longitude": "11.3642",
    "geohash": "u2806eg4j41x",
    "mosmix_id": "P804"
  },
  "222": {
    "name": "Aue",
    "latitude": "50.5907",
    "longitude": "12.7140",
    "geohash": "u2cpc3f01wj8",
    "mosmix_id": "10575"
  },
  "232": {
    "name": "Augsburg",
    "latitude": "48.4254",
    "longitude": "10.9420",
    "geohash": "u0xg2zxdrhfd",
    "mosmix_id": "10852"
  },
  "257": {
    "name": "Baden-Baden-Geroldsau",
    "latitude": "48.7270",
    "longitude": "8.2458",
    "geohash": "u0tv5wkrm54h",
    "mosmix_id": null
  },
  "259": {
    "name": "M\u00fcllheim",
    "latitude": "47.8064",
    "longitude": "7.6387",
    "geohash": "u0mrvyfk6wgs",
    "mosmix_id": "Q887"
  },
  "282": {
    "name": "Bamberg",
    "latitude": "49.8742",
    "longitude": "10.9206",
    "geohash": "u0zg8x24k2tx",
    "mosmix_id": "10675"
  },
  "294": {
    "name": "Barsinghausen-Hohenbostel",
    "latitude": "52.3199",
    "longitude": "9.4300",
    "geohash": "u1q9wsd9wbm8",
    "mosmix_id": null
  },
  "298": {
    "name": "Barth",
    "latitude": "54.3406",
    "longitude": "12.7108",
    "geohash": "u39j1hrszn53",
    "mosmix_id": "10180"
  },
  "303": {
    "name": "Baruth",
    "latitude": "52.0614",
    "longitude": "13.4996",
    "geohash": "u3385jqpekr7",
    "mosmix_id": "10376"
  },
  "314": {
    "name": "Kubsch\u00fctz, Kr. Bautzen",
    "latitude": "51.1604",
    "longitude": "14.5042",
    "geohash": "u347413wumg3",
    "mosmix_id": null
  },
  "320": {
    "name": "Heinersreuth-Vollhof",
    "latitude": "49.9667",
    "longitude": "11.5197",
    "geohash": "u2bhq0hmh7yz",
    "mosmix_id": "P175"
  },
  "326": {
    "name": "Beckum-Unterberg",
    "latitude": "51.7204",
    "longitude": "8.0577",
    "geohash": "u1jwpr7mnj2e",
    "mosmix_id": "H361"
  },
  "330": {
    "name": "Oberzent-Beerfelden",
    "latitude": "49.5617",
    "longitude": "8.9673",
    "geohash": "u0y3un3vc4x8",
    "mosmix_id": null
  },
  "342": {
    "name": "Belm",
    "latitude": "52.3170",
    "longitude": "8.1694",
    "geohash": "u1mc9uhb8gdj",
    "mosmix_id": "10312"
  },
  "348": {
    "name": "Bendorf",
    "latitude": "50.4135",
    "longitude": "7.5886",
    "geohash": "u0vqu9mzgjw3",
    "mosmix_id": null
  },
  "377": {
    "name": "Bergzabern, Bad",
    "latitude": "49.1070",
    "longitude": "7.9967",
    "geohash": "u0txmgxj0879",
    "mosmix_id": null
  },
  "379": {
    "name": "Berka, Bad (Flugplatz)",
    "latitude": "50.9074",
    "longitude": "11.2665",
    "geohash": "u30187kj07pm",
    "mosmix_id": null
  },
  "390": {
    "name": "Berleburg, Bad-St\u00fcnzel",
    "latitude": "50.9837",
    "longitude": "8.3683",
    "geohash": "u1jfn3m9ed88",
    "mosmix_id": null
  },
  "399": {
    "name": "Berlin-Alexanderplatz",
    "latitude": "52.5198",
    "longitude": "13.4057",
    "geohash": "u33dc0cwp2q6",
    "mosmix_id": null
  },
  "400": {
    "name": "Berlin-Buch",
    "latitude": "52.6309",
    "longitude": "13.5022",
    "geohash": "u33e7m0j0nf5",
    "mosmix_id": "G002"
  },
  "410": {
    "name": "Berlin-Kaniswall",
    "latitude": "52.4040",
    "longitude": "13.7309",
    "geohash": "u33f07ye3jth",
    "mosmix_id": "G006"
  },
  "420": {
    "name": "Berlin-Marzahn",
    "latitude": "52.5447",
    "longitude": "13.5598",
    "geohash": "u33dut3zn4p8",
    "mosmix_id": "G005"
  },
  "427": {
    "name": "Berlin-Sch\u00f6nefeld",
    "latitude": "52.3807",
    "longitude": "13.5306",
    "geohash": "u339gzsety4w",
    "mosmix_id": "10385"
  },
  "430": {
    "name": "Berlin-Tegel",
    "latitude": "52.5644",
    "longitude": "13.3088",
    "geohash": "u337nc51vd2e",
    "mosmix_id": "10382"
  },
  "433": {
    "name": "Berlin-Tempelhof",
    "latitude": "52.4675",
    "longitude": "13.4021",
    "geohash": "u33d2zrj7dfh",
    "mosmix_id": "10384"
  },
  "445": {
    "name": "Bernburg/Saale (Nord)",
    "latitude": "51.8218",
    "longitude": "11.7109",
    "geohash": "u30qf3zegexy",
    "mosmix_id": null
  },
  "450": {
    "name": "Bernkastel-Kues",
    "latitude": "49.9186",
    "longitude": "7.0664",
    "geohash": "u0v5bz3sgj3x",
    "mosmix_id": "K531"
  },
  "460": {
    "name": "Berus",
    "latitude": "49.2640",
    "longitude": "6.6868",
    "geohash": "u0ub20jptepq",
    "mosmix_id": "10704"
  },
  "535": {
    "name": "Blankenrath",
    "latitude": "50.0372",
    "longitude": "7.3079",
    "geohash": "u0vhwkcry6jh",
    "mosmix_id": "K463"
  },
  "555": {
    "name": "Bochum",
    "latitude": "51.4789",
    "longitude": "7.2697",
    "geohash": "u1jhv7mwk63p",
    "mosmix_id": "K1161"
  },
  "591": {
    "name": "Boizenburg",
    "latitude": "53.3911",
    "longitude": "10.6878",
    "geohash": "u1rxepw9ey3m",
    "mosmix_id": "10249"
  },
  "596": {
    "name": "Boltenhagen",
    "latitude": "54.0028",
    "longitude": "11.1908",
    "geohash": "u1xgnwuvhe93",
    "mosmix_id": "10161"
  },
  "603": {
    "name": "Bonn-Roleber",
    "latitude": "50.7349",
    "longitude": "7.1931",
    "geohash": "u1j0esjb5qu5",
    "mosmix_id": "10519"
  },
  "617": {
    "name": "Borken in Westfalen",
    "latitude": "51.8730",
    "longitude": "6.8863",
    "geohash": "u1hzhenqnkj3",
    "mosmix_id": null
  },
  "656": {
    "name": "Braunlage",
    "latitude": "51.7234",
    "longitude": "10.6021",
    "geohash": "u1pw1rbnwude",
    "mosmix_id": "10452"
  },
  "662": {
    "name": "Braunschweig",
    "latitude": "52.2915",
    "longitude": "10.4464",
    "geohash": "u1r3mxqu4f07",
    "mosmix_id": null
  },
  "691": {
    "name": "Bremen",
    "latitude": "53.0450",
    "longitude": "8.7979",
    "geohash": "u1qmb0w3tbtw",
    "mosmix_id": "10224"
  },
  "701": {
    "name": "Bremerhaven",
    "latitude": "53.5332",
    "longitude": "8.5761",
    "geohash": "u1w0e1kvmxg8",
    "mosmix_id": "10129"
  },
  "704": {
    "name": "Bremerv\u00f6rde",
    "latitude": "53.4451",
    "longitude": "9.1390",
    "geohash": "u1w2pcqu60sr",
    "mosmix_id": "10139"
  },
  "722": {
    "name": "Brocken",
    "latitude": "51.7986",
    "longitude": "10.6183",
    "geohash": "u1pw9tsh8qfk",
    "mosmix_id": "10453"
  },
  "755": {
    "name": "Buchen, Kr. Neckar-Odenwald",
    "latitude": "49.5182",
    "longitude": "9.3213",
    "geohash": "u0y9sne86j90",
    "mosmix_id": null
  },
  "757": {
    "name": "Buchenbach",
    "latitude": "47.9625",
    "longitude": "7.9983",
    "geohash": "u0t8y521vfh8",
    "mosmix_id": "Q811"
  },
  "760": {
    "name": "Rosengarten-Klecken",
    "latitude": "53.3629",
    "longitude": "9.9435",
    "geohash": "u1rpd62tkmdc",
    "mosmix_id": "E273"
  },
  "817": {
    "name": "Burgwald-Bottendorf",
    "latitude": "51.0306",
    "longitude": "8.8146",
    "geohash": "u1n629fdg164",
    "mosmix_id": "L217"
  },
  "840": {
    "name": "Carlsfeld",
    "latitude": "50.4313",
    "longitude": "12.6114",
    "geohash": "u2byyuxrdgtq",
    "mosmix_id": "10574"
  },
  "853": {
    "name": "Chemnitz",
    "latitude": "50.7913",
    "longitude": "12.8720",
    "geohash": "u310uym0g2df",
    "mosmix_id": "10577"
  },
  "856": {
    "name": "Chieming",
    "latitude": "47.8843",
    "longitude": "12.5404",
    "geohash": "u28bmm5dk2rz",
    "mosmix_id": "10982"
  },
  "863": {
    "name": "Clausthal-Zellerfeld",
    "latitude": "51.7904",
    "longitude": "10.3470",
    "geohash": "u1pqeknkyw63",
    "mosmix_id": "E877"
  },
  "867": {
    "name": "Lautertal-Oberlauter",
    "latitude": "50.3066",
    "longitude": "10.9679",
    "geohash": "u0zy1w494tfy",
    "mosmix_id": null
  },
  "880": {
    "name": "Cottbus",
    "latitude": "51.7760",
    "longitude": "14.3168",
    "geohash": "u34ntc91j9gy",
    "mosmix_id": "10496"
  },
  "891": {
    "name": "Cuxhaven",
    "latitude": "53.8713",
    "longitude": "8.7058",
    "geohash": "u1w4qngr5f4v",
    "mosmix_id": "10131"
  },
  "896": {
    "name": "Dachwig",
    "latitude": "51.0778",
    "longitude": "10.8619",
    "geohash": "u1pdx4mmu859",
    "mosmix_id": "M348"
  },
  "917": {
    "name": "Darmstadt",
    "latitude": "49.8809",
    "longitude": "8.6779",
    "geohash": "u0y5v2x139xn",
    "mosmix_id": "K2596"
  },
  "953": {
    "name": "Deuselbach",
    "latitude": "49.7619",
    "longitude": "7.0541",
    "geohash": "u0v50dbsh6qp",
    "mosmix_id": "10615"
  },
  "963": {
    "name": "Diepholz",
    "latitude": "52.5881",
    "longitude": "8.3424",
    "geohash": "u1mgjv6gbh27",
    "mosmix_id": "10321"
  },
  "979": {
    "name": "Dillenburg",
    "latitude": "50.7364",
    "longitude": "8.2672",
    "geohash": "u1jbsh7bzwrn",
    "mosmix_id": "L411"
  },
  "983": {
    "name": "Dillingen/Donau-Fristingen",
    "latitude": "48.5562",
    "longitude": "10.5599",
    "geohash": "u0xs0r3kre8p",
    "mosmix_id": null
  },
  "991": {
    "name": "Dippoldiswalde-Reinberg",
    "latitude": "50.9117",
    "longitude": "13.7087",
    "geohash": "u319xunq5ug8",
    "mosmix_id": null
  },
  "1001": {
    "name": "Doberlug-Kirchhain",
    "latitude": "51.6451",
    "longitude": "13.5747",
    "geohash": "u31tucsy92mv",
    "mosmix_id": "10490"
  },
  "1048": {
    "name": "Dresden-Klotzsche",
    "latitude": "51.1280",
    "longitude": "13.7543",
    "geohash": "u31fbgxd4mvr",
    "mosmix_id": null
  },
  "1050": {
    "name": "Dresden-Hosterwitz",
    "latitude": "51.0221",
    "longitude": "13.8470",
    "geohash": "u31f707162z9",
    "mosmix_id": "O458"
  },
  "1051": {
    "name": "Dresden-Strehlen",
    "latitude": "51.0248",
    "longitude": "13.7750",
    "geohash": "u31f32y9hb07",
    "mosmix_id": "O457"
  },
  "1052": {
    "name": "Drewitz bei Burg",
    "latitude": "52.2174",
    "longitude": "12.1641",
    "geohash": "u329hccskhfk",
    "mosmix_id": "N398"
  },
  "1072": {
    "name": "D\u00fcrkheim, Bad",
    "latitude": "49.4719",
    "longitude": "8.1929",
    "geohash": "u0vc6qjfsqt4",
    "mosmix_id": null
  },
  "1078": {
    "name": "D\u00fcsseldorf",
    "latitude": "51.2960",
    "longitude": "6.7686",
    "geohash": "u1hgf40szg3y",
    "mosmix_id": "10400"
  },
  "1103": {
    "name": "Ebersberg-Halbing",
    "latitude": "48.1002",
    "longitude": "11.9872",
    "geohash": "u2898u2gfp0j",
    "mosmix_id": "P768"
  },
  "1107": {
    "name": "Ebrach",
    "latitude": "49.8520",
    "longitude": "10.4990",
    "geohash": "u0z7wgm0uqmg",
    "mosmix_id": "K4058"
  },
  "1161": {
    "name": "Eichst\u00e4tt-Landershofen",
    "latitude": "48.8777",
    "longitude": "11.2349",
    "geohash": "u0xyp9vj0pst",
    "mosmix_id": null
  },
  "1197": {
    "name": "Ellwangen-Rindelbach",
    "latitude": "48.9895",
    "longitude": "10.1312",
    "geohash": "u0xnww32d0dq",
    "mosmix_id": "Q382"
  },
  "1200": {
    "name": "Elpersb\u00fcttel",
    "latitude": "54.0691",
    "longitude": "9.0105",
    "geohash": "u1w7t4cprfgb",
    "mosmix_id": "10130"
  },
  "1207": {
    "name": "Elster, Bad-Sohl",
    "latitude": "50.2705",
    "longitude": "12.2742",
    "geohash": "u2btzr3ycs6v",
    "mosmix_id": "O980"
  },
  "1214": {
    "name": "Elzach-Fisnacht",
    "latitude": "48.2012",
    "longitude": "8.1089",
    "geohash": "u0tf0wb8r4fj",
    "mosmix_id": "Q712"
  },
  "1224": {
    "name": "Emmendingen-Mundingen",
    "latitude": "48.1378",
    "longitude": "7.8351",
    "geohash": "u0t9f71r5064",
    "mosmix_id": null
  },
  "1239": {
    "name": "Engen/Hegau",
    "latitude": "47.8516",
    "longitude": "8.7673",
    "geohash": "u0w0px05ubu8",
    "mosmix_id": null
  },
  "1246": {
    "name": "Ennigerloh-Ostenfelde",
    "latitude": "51.8418",
    "longitude": "8.0607",
    "geohash": "u1jwzmt87gvw",
    "mosmix_id": null
  },
  "1255": {
    "name": "Eppingen-Elsenz",
    "latitude": "49.1664",
    "longitude": "8.8523",
    "geohash": "u0wr9qqp1932",
    "mosmix_id": "Q221"
  },
  "1262": {
    "name": "M\u00fcnchen-Flughafen",
    "latitude": "48.3477",
    "longitude": "11.8133",
    "geohash": "u287hc6jvbdb",
    "mosmix_id": null
  },
  "1266": {
    "name": "Erfde",
    "latitude": "54.2992",
    "longitude": "9.3162",
    "geohash": "u1wsguzgg0w0",
    "mosmix_id": "A351"
  },
  "1270": {
    "name": "Erfurt-Weimar",
    "latitude": "50.9829",
    "longitude": "10.9608",
    "geohash": "u1pf13jkvjku",
    "mosmix_id": null
  },
  "1279": {
    "name": "M\u00f6hrendorf-Kleinseebach",
    "latitude": "49.6497",
    "longitude": "11.0074",
    "geohash": "u0zf6qrq7nbk",
    "mosmix_id": null
  },
  "1297": {
    "name": "Eschwege",
    "latitude": "51.2041",
    "longitude": "10.0138",
    "geohash": "u1p57c7vd2n6",
    "mosmix_id": "K3997"
  },
  "1300": {
    "name": "Eslohe",
    "latitude": "51.2540",
    "longitude": "8.1565",
    "geohash": "u1jg9de2hnp5",
    "mosmix_id": "H579"
  },
  "1303": {
    "name": "Essen-Bredeney",
    "latitude": "51.4041",
    "longitude": "6.9677",
    "geohash": "u1huqtcdx4v8",
    "mosmix_id": null
  },
  "1327": {
    "name": "Weilerswist-Lommersum",
    "latitude": "50.7119",
    "longitude": "6.7905",
    "geohash": "u1hb6xbdnp7f",
    "mosmix_id": null
  },
  "1332": {
    "name": "Falkenberg,Kr.Rottal-Inn",
    "latitude": "48.4832",
    "longitude": "12.7241",
    "geohash": "u295cd17j589",
    "mosmix_id": null
  },
  "1346": {
    "name": "Feldberg/Schwarzwald",
    "latitude": "47.8749",
    "longitude": "8.0038",
    "geohash": "u0t8q5k5w01y",
    "mosmix_id": null
  },
  "1357": {
    "name": "Fichtelberg/Oberfranken-H\u00fcttstadl",
    "latitude": "49.9807",
    "longitude": "11.8376",
    "geohash": "u2bkm6eysjf2",
    "mosmix_id": null
  },
  "1358": {
    "name": "Fichtelberg",
    "latitude": "50.4283",
    "longitude": "12.9535",
    "geohash": "u2cnyu0qnkmw",
    "mosmix_id": "10578"
  },
  "1411": {
    "name": "Birx/Rh\u00f6n",
    "latitude": "50.5309",
    "longitude": "10.0480",
    "geohash": "u0zpkwuez67z",
    "mosmix_id": null
  },
  "1420": {
    "name": "Frankfurt/Main",
    "latitude": "50.0259",
    "longitude": "8.5213",
    "geohash": "u0yh9fvjbxtv",
    "mosmix_id": null
  },
  "1424": {
    "name": "Frankfurt/Main-Westend",
    "latitude": "50.1269",
    "longitude": "8.6694",
    "geohash": "u0yjjm2f7emj",
    "mosmix_id": null
  },
  "1443": {
    "name": "Freiburg",
    "latitude": "48.0233",
    "longitude": "7.8344",
    "geohash": "u0t94q2gfzbn",
    "mosmix_id": "10803"
  },
  "1451": {
    "name": "Freiburg/Elbe",
    "latitude": "53.8277",
    "longitude": "9.2493",
    "geohash": "u1wd4rp1h69c",
    "mosmix_id": "E082"
  },
  "1468": {
    "name": "Freudenstadt",
    "latitude": "48.4537",
    "longitude": "8.4091",
    "geohash": "u0tgxker60r6",
    "mosmix_id": null
  },
  "1473": {
    "name": "Freystadt-Michelbach",
    "latitude": "49.1869",
    "longitude": "11.3080",
    "geohash": "u28pc64nrqxz",
    "mosmix_id": null
  },
  "1503": {
    "name": "Friesoythe-Altenoythe",
    "latitude": "53.0643",
    "longitude": "7.9022",
    "geohash": "u1mtgu41yw7r",
    "mosmix_id": null
  },
  "1526": {
    "name": "Fulda-Horas",
    "latitude": "50.5668",
    "longitude": "9.6533",
    "geohash": "u0yzetmkfnwp",
    "mosmix_id": null
  },
  "1544": {
    "name": "Gardelegen",
    "latitude": "52.5129",
    "longitude": "11.3941",
    "geohash": "u324er8vvf0d",
    "mosmix_id": "10359"
  },
  "1550": {
    "name": "Garmisch-Partenkirchen",
    "latitude": "47.4830",
    "longitude": "11.0621",
    "geohash": "u0ry5sp0t8ex",
    "mosmix_id": null
  },
  "1580": {
    "name": "Geisenheim",
    "latitude": "49.9859",
    "longitude": "7.9549",
    "geohash": "u0vsm58sfx5k",
    "mosmix_id": "10628"
  },
  "1584": {
    "name": "Geisingen",
    "latitude": "47.9242",
    "longitude": "8.6473",
    "geohash": "u0w0su2f8wqh",
    "mosmix_id": "Q848"
  },
  "1587": {
    "name": "Gelbelsee",
    "latitude": "48.9481",
    "longitude": "11.4289",
    "geohash": "u28nkndr2ejt",
    "mosmix_id": "P438"
  },
  "1590": {
    "name": "Geldern-Walbeck",
    "latitude": "51.4942",
    "longitude": "6.2463",
    "geohash": "u1hkynhrmqdg",
    "mosmix_id": "H401"
  },
  "1602": {
    "name": "Ohlsbach",
    "latitude": "48.4329",
    "longitude": "7.9931",
    "geohash": "u0tetbuqhdzq",
    "mosmix_id": "Q518"
  },
  "1605": {
    "name": "Genthin",
    "latitude": "52.3875",
    "longitude": "12.1601",
    "geohash": "u32dh8yeqcgd",
    "mosmix_id": "10365"
  },
  "1612": {
    "name": "Gera-Leumnitz",
    "latitude": "50.8813",
    "longitude": "12.1289",
    "geohash": "u3097yxvpcg3",
    "mosmix_id": null
  },
  "1639": {
    "name": "Gie\u00dfen/Wettenberg",
    "latitude": "50.6017",
    "longitude": "8.6439",
    "geohash": "u0ypuey232wf",
    "mosmix_id": null
  },
  "1645": {
    "name": "Gilserberg-Moischeid",
    "latitude": "50.9656",
    "longitude": "9.0500",
    "geohash": "u1n3vyn00k3n",
    "mosmix_id": "L340"
  },
  "1684": {
    "name": "G\u00f6rlitz",
    "latitude": "51.1622",
    "longitude": "14.9506",
    "geohash": "u34eh1y9qjr6",
    "mosmix_id": "10499"
  },
  "1691": {
    "name": "G\u00f6ttingen",
    "latitude": "51.5002",
    "longitude": "9.9507",
    "geohash": "u1phfrmfkj5e",
    "mosmix_id": "10444"
  },
  "1694": {
    "name": "Goldberg",
    "latitude": "53.6060",
    "longitude": "12.1033",
    "geohash": "u388gqtme6dt",
    "mosmix_id": "10168"
  },
  "1721": {
    "name": "Gr\u00e4fenberg-Kasberg",
    "latitude": "49.6640",
    "longitude": "11.2239",
    "geohash": "u0zfx3hczbd7",
    "mosmix_id": "P265"
  },
  "1735": {
    "name": "Grainet-Rehberg",
    "latitude": "48.7893",
    "longitude": "13.6291",
    "geohash": "u29tw1u6m09w",
    "mosmix_id": null
  },
  "1736": {
    "name": "Grambek",
    "latitude": "53.5731",
    "longitude": "10.6797",
    "geohash": "u1x8g08tzj9m",
    "mosmix_id": "A981"
  },
  "1757": {
    "name": "Greifswald",
    "latitude": "54.0967",
    "longitude": "13.4056",
    "geohash": "u39ec018j5gc",
    "mosmix_id": "10184"
  },
  "1759": {
    "name": "Greifswalder Oie",
    "latitude": "54.2437",
    "longitude": "13.9102",
    "geohash": "u39usdc07nsf",
    "mosmix_id": "10097"
  },
  "1766": {
    "name": "M\u00fcnster/Osnabr\u00fcck",
    "latitude": "52.1344",
    "longitude": "7.6969",
    "geohash": "u1m2x4u8yu89",
    "mosmix_id": null
  },
  "1803": {
    "name": "Gro\u00df L\u00fcsewitz",
    "latitude": "54.0714",
    "longitude": "12.3238",
    "geohash": "u38g87mutre2",
    "mosmix_id": "B334"
  },
  "1832": {
    "name": "Gro\u00dfer Arber",
    "latitude": "49.1129",
    "longitude": "13.1338",
    "geohash": "u29r6uexrsph",
    "mosmix_id": null
  },
  "1863": {
    "name": "Gr\u00fcndau-Breitenborn",
    "latitude": "50.2667",
    "longitude": "9.1854",
    "geohash": "u0ytcnb8g249",
    "mosmix_id": "L771"
  },
  "1869": {
    "name": "Gr\u00fcnow",
    "latitude": "53.3153",
    "longitude": "13.9338",
    "geohash": "u33zm1f21h62",
    "mosmix_id": "10289"
  },
  "1886": {
    "name": "G\u00fcnzburg",
    "latitude": "48.4878",
    "longitude": "10.2607",
    "geohash": "u0x7c6ztgth3",
    "mosmix_id": "P606"
  },
  "1957": {
    "name": "Halle-Kr\u00f6llwitz",
    "latitude": "51.5138",
    "longitude": "11.9499",
    "geohash": "u30mpcv9su76",
    "mosmix_id": null
  },
  "1964": {
    "name": "Olsdorf",
    "latitude": "49.9445",
    "longitude": "6.3821",
    "geohash": "u0us1hp7c9we",
    "mosmix_id": "K419"
  },
  "1975": {
    "name": "Hamburg-Fuhlsb\u00fcttel",
    "latitude": "53.6332",
    "longitude": "9.9881",
    "geohash": "u1x1579h5955",
    "mosmix_id": null
  },
  "1981": {
    "name": "Hamburg-Neuwiedenthal",
    "latitude": "53.4777",
    "longitude": "9.8957",
    "geohash": "u1x01pmf4tbd",
    "mosmix_id": null
  },
  "2014": {
    "name": "Hannover",
    "latitude": "52.4644",
    "longitude": "9.6779",
    "geohash": "u1qfknz5r3j2",
    "mosmix_id": "10338"
  },
  "2023": {
    "name": "Harburg",
    "latitude": "48.7918",
    "longitude": "10.7062",
    "geohash": "u0xtedk0bdc2",
    "mosmix_id": "10850"
  },
  "2039": {
    "name": "Harzburg, Bad",
    "latitude": "51.9002",
    "longitude": "10.5699",
    "geohash": "u1px280u8d88",
    "mosmix_id": null
  },
  "2044": {
    "name": "Harzgerode",
    "latitude": "51.6520",
    "longitude": "11.1367",
    "geohash": "u1pvv6vqxytm",
    "mosmix_id": "10458"
  },
  "2074": {
    "name": "Hechingen",
    "latitude": "48.3751",
    "longitude": "8.9801",
    "geohash": "u0w7hq7j7kpz",
    "mosmix_id": "Q651"
  },
  "2080": {
    "name": "Heidelberg",
    "latitude": "49.4206",
    "longitude": "8.6676",
    "geohash": "u0y1jhxxcewf",
    "mosmix_id": "K2693"
  },
  "2088": {
    "name": "Heidenheim/Brenz",
    "latitude": "48.6765",
    "longitude": "10.1307",
    "geohash": "u0xhyt2cnmm2",
    "mosmix_id": null
  },
  "2110": {
    "name": "Heinsberg-Schleiden",
    "latitude": "51.0411",
    "longitude": "6.1042",
    "geohash": "u1h66gszyntm",
    "mosmix_id": "H606"
  },
  "2115": {
    "name": "Helgoland",
    "latitude": "54.1750",
    "longitude": "7.8920",
    "geohash": "u1ts5w6b0zvw",
    "mosmix_id": "10015"
  },
  "2167": {
    "name": "Niederw\u00f6rresbach",
    "latitude": "49.7672",
    "longitude": "7.3356",
    "geohash": "u0v5ngvdgy7z",
    "mosmix_id": null
  },
  "2171": {
    "name": "Hersfeld, Bad",
    "latitude": "50.8519",
    "longitude": "9.7378",
    "geohash": "u1ncm96cg1jz",
    "mosmix_id": null
  },
  "2174": {
    "name": "Herzberg",
    "latitude": "51.6255",
    "longitude": "10.3695",
    "geohash": "u1pmeynu6few",
    "mosmix_id": "N4561"
  },
  "2201": {
    "name": "Hiddensee-Vitte",
    "latitude": "54.5750",
    "longitude": "13.1044",
    "geohash": "u39q6pn66tkg",
    "mosmix_id": "B006"
  },
  "2211": {
    "name": "Hilgenroth",
    "latitude": "50.7371",
    "longitude": "7.6528",
    "geohash": "u1j2whkt50vq",
    "mosmix_id": "K017"
  },
  "2252": {
    "name": "Bertsdorf-H\u00f6rnitz",
    "latitude": "50.8990",
    "longitude": "14.7457",
    "geohash": "u343x9ckptqc",
    "mosmix_id": "O598"
  },
  "2261": {
    "name": "Hof",
    "latitude": "50.3122",
    "longitude": "11.8761",
    "geohash": "u2bqnppcv1vg",
    "mosmix_id": "10685"
  },
  "2290": {
    "name": "Hohenpei\u00dfenberg",
    "latitude": "47.8009",
    "longitude": "11.0108",
    "geohash": "u0rzftcu6jxe",
    "mosmix_id": null
  },
  "2306": {
    "name": "Hohwacht",
    "latitude": "54.3194",
    "longitude": "10.6732",
    "geohash": "u1xt4becrw4d",
    "mosmix_id": "A481"
  },
  "2319": {
    "name": "Holzkirchen",
    "latitude": "47.8823",
    "longitude": "11.6962",
    "geohash": "u2826hsyt5wv",
    "mosmix_id": "P856"
  },
  "2323": {
    "name": "Bevern, Kr. Holzminden",
    "latitude": "51.8529",
    "longitude": "9.4953",
    "geohash": "u1nybpd3090u",
    "mosmix_id": null
  },
  "2362": {
    "name": "H\u00fcmmerich",
    "latitude": "50.5651",
    "longitude": "7.4843",
    "geohash": "u0vrdm1ghcfd",
    "mosmix_id": "K057"
  },
  "2429": {
    "name": "Itzehoe",
    "latitude": "53.9897",
    "longitude": "9.5696",
    "geohash": "u1wg1u82gcdc",
    "mosmix_id": "10142"
  },
  "2444": {
    "name": "Jena (Sternwarte)",
    "latitude": "50.9251",
    "longitude": "11.5830",
    "geohash": "u301xwdkpqwy",
    "mosmix_id": "M552"
  },
  "2480": {
    "name": "Kahl/Main",
    "latitude": "50.0643",
    "longitude": "8.9930",
    "geohash": "u0yku9ut8jfy",
    "mosmix_id": null
  },
  "2483": {
    "name": "Kahler Asten",
    "latitude": "51.1803",
    "longitude": "8.4891",
    "geohash": "u1n51jjdf77t",
    "mosmix_id": null
  },
  "2485": {
    "name": "Kaisersbach-Cronh\u00fctte",
    "latitude": "48.9171",
    "longitude": "9.6872",
    "geohash": "u0wyk3n4b07g",
    "mosmix_id": null
  },
  "2486": {
    "name": "Kaiserslautern",
    "latitude": "49.4262",
    "longitude": "7.7557",
    "geohash": "u0v90mz82zmp",
    "mosmix_id": "K2288"
  },
  "2497": {
    "name": "Kall-Sistig",
    "latitude": "50.5014",
    "longitude": "6.5264",
    "geohash": "u0uxk92rupk9",
    "mosmix_id": "H981"
  },
  "2532": {
    "name": "Kassel",
    "latitude": "51.2963",
    "longitude": "9.4424",
    "geohash": "u1neyf5wxg7s",
    "mosmix_id": "10438"
  },
  "2542": {
    "name": "Kaufbeuren",
    "latitude": "47.8652",
    "longitude": "10.6007",
    "geohash": "u0x831x4ypyz",
    "mosmix_id": "K4149"
  },
  "2559": {
    "name": "Kempten",
    "latitude": "47.7233",
    "longitude": "10.3348",
    "geohash": "u0rr7pv867cm",
    "mosmix_id": "10946"
  },
  "2564": {
    "name": "Kiel-Holtenau",
    "latitude": "54.3761",
    "longitude": "10.1433",
    "geohash": "u1xjqff5sp8x",
    "mosmix_id": null
  },
  "2575": {
    "name": "Kirchberg/Jagst-Herboldshausen",
    "latitude": "49.1804",
    "longitude": "9.9800",
    "geohash": "u0xpg150wg53",
    "mosmix_id": null
  },
  "2578": {
    "name": "Kirchdorf/Poel",
    "latitude": "53.9995",
    "longitude": "11.4341",
    "geohash": "u385hnq1cu6u",
    "mosmix_id": "B308"
  },
  "2597": {
    "name": "Kissingen, Bad",
    "latitude": "50.2241",
    "longitude": "10.0792",
    "geohash": "u0zjtr52w6u4",
    "mosmix_id": null
  },
  "2600": {
    "name": "Kitzingen",
    "latitude": "49.7363",
    "longitude": "10.1781",
    "geohash": "u0z4zw5qyym6",
    "mosmix_id": "K4057"
  },
  "2601": {
    "name": "Kleiner Feldberg/Taunus",
    "latitude": "50.2218",
    "longitude": "8.4469",
    "geohash": "u0yj8nwg5n14",
    "mosmix_id": null
  },
  "2618": {
    "name": "Kleiner Inselsberg",
    "latitude": "50.8458",
    "longitude": "10.4803",
    "geohash": "u1p3q2pw28n5",
    "mosmix_id": null
  },
  "2627": {
    "name": "Klettwitz",
    "latitude": "51.5555",
    "longitude": "13.8845",
    "geohash": "u31v7cqks3c8",
    "mosmix_id": "P0365"
  },
  "2629": {
    "name": "Kleve",
    "latitude": "51.7612",
    "longitude": "6.0954",
    "geohash": "u1hq6wydc559",
    "mosmix_id": "K1176"
  },
  "2638": {
    "name": "Klippeneck",
    "latitude": "48.1054",
    "longitude": "8.7548",
    "geohash": "u0w1xjr438s0",
    "mosmix_id": "10818"
  },
  "2641": {
    "name": "Klitzschen bei Torgau",
    "latitude": "51.5185",
    "longitude": "12.9065",
    "geohash": "u31jjdwjp0rz",
    "mosmix_id": null
  },
  "2667": {
    "name": "K\u00f6ln-Bonn",
    "latitude": "50.8646",
    "longitude": "7.1575",
    "geohash": "u1j16gegvbdv",
    "mosmix_id": null
  },
  "2680": {
    "name": "K\u00f6nigshofen, Bad",
    "latitude": "50.2840",
    "longitude": "10.4456",
    "geohash": "u0zqj9ym80gz",
    "mosmix_id": null
  },
  "2700": {
    "name": "K\u00f6sching",
    "latitude": "48.8302",
    "longitude": "11.4872",
    "geohash": "u28jv3k8x1j0",
    "mosmix_id": "P532"
  },
  "2704": {
    "name": "K\u00f6then (Anhalt)",
    "latitude": "51.7511",
    "longitude": "12.0094",
    "geohash": "u30w3m0bp238",
    "mosmix_id": "N652"
  },
  "2708": {
    "name": "Kohlgrub, Bad (Rosshof)",
    "latitude": "47.6652",
    "longitude": "11.0804",
    "geohash": "u0rzhjhtbj31",
    "mosmix_id": null
  },
  "2712": {
    "name": "Konstanz",
    "latitude": "47.6774",
    "longitude": "9.1901",
    "geohash": "u0qx1pkhbze1",
    "mosmix_id": "10929"
  },
  "2750": {
    "name": "Kronach",
    "latitude": "50.2523",
    "longitude": "11.3209",
    "geohash": "u2bjcs5su5dv",
    "mosmix_id": "K4036"
  },
  "2794": {
    "name": "Kyritz",
    "latitude": "52.9363",
    "longitude": "12.4093",
    "geohash": "u32v4ku0m9s9",
    "mosmix_id": "10267"
  },
  "2812": {
    "name": "Lahr",
    "latitude": "48.3647",
    "longitude": "7.8280",
    "geohash": "u0te4hs0v9ec",
    "mosmix_id": "10805"
  },
  "2814": {
    "name": "Merklingen",
    "latitude": "48.5121",
    "longitude": "9.7645",
    "geohash": "u0wgypq73qfu",
    "mosmix_id": "K2729"
  },
  "2843": {
    "name": "Langen (BZ)",
    "latitude": "50.0075",
    "longitude": "8.6547",
    "geohash": "u0yhkzw4v1sj",
    "mosmix_id": null
  },
  "2856": {
    "name": "Langenlipsdorf",
    "latitude": "51.9173",
    "longitude": "13.0878",
    "geohash": "u31r3g60py5j",
    "mosmix_id": "F707"
  },
  "2878": {
    "name": "Lauchst\u00e4dt, Bad",
    "latitude": "51.3910",
    "longitude": "11.8788",
    "geohash": "u30kq73yk0er",
    "mosmix_id": "N769"
  },
  "2907": {
    "name": "Leck",
    "latitude": "54.7903",
    "longitude": "8.9514",
    "geohash": "u1wrewq0wspw",
    "mosmix_id": "10022"
  },
  "2925": {
    "name": "Leinefelde",
    "latitude": "51.3933",
    "longitude": "10.3123",
    "geohash": "u1pk6ev5wj80",
    "mosmix_id": "10449"
  },
  "2928": {
    "name": "Leipzig-Holzhausen",
    "latitude": "51.3151",
    "longitude": "12.4462",
    "geohash": "u30ggjxh17zq",
    "mosmix_id": null
  },
  "2932": {
    "name": "Leipzig/Halle",
    "latitude": "51.4348",
    "longitude": "12.2396",
    "geohash": "u30swe2t7mej",
    "mosmix_id": null
  },
  "2947": {
    "name": "Lennestadt-Theten",
    "latitude": "51.1333",
    "longitude": "8.0348",
    "geohash": "u1jdyudc03vp",
    "mosmix_id": "H678"
  },
  "2951": {
    "name": "Lenzen/Elbe",
    "latitude": "53.1007",
    "longitude": "11.4864",
    "geohash": "u32nj6sjuxbt",
    "mosmix_id": "F105"
  },
  "2953": {
    "name": "Lenzkirch-Ruhb\u00fchl",
    "latitude": "47.8597",
    "longitude": "8.2308",
    "geohash": "u0tb7296zw9q",
    "mosmix_id": "Q823"
  },
  "2961": {
    "name": "Leuchtturm Kiel",
    "latitude": "54.4996",
    "longitude": "10.2737",
    "geohash": "u1xq1c354tcc",
    "mosmix_id": "10044"
  },
  "2968": {
    "name": "K\u00f6ln-Stammheim",
    "latitude": "50.9894",
    "longitude": "6.9777",
    "geohash": "u1hfnf34b1n4",
    "mosmix_id": "H744"
  },
  "2985": {
    "name": "Lichtenhain-Mittelndorf",
    "latitude": "50.9383",
    "longitude": "14.2093",
    "geohash": "u341g34cheq5",
    "mosmix_id": null
  },
  "3015": {
    "name": "Lindenberg",
    "latitude": "52.2085",
    "longitude": "14.1180",
    "geohash": "u3611222t1zc",
    "mosmix_id": "10393"
  },
  "3023": {
    "name": "Lingen",
    "latitude": "52.5181",
    "longitude": "7.3081",
    "geohash": "u1m4y29s556m",
    "mosmix_id": "10305"
  },
  "3028": {
    "name": "Lippspringe, Bad",
    "latitude": "51.7855",
    "longitude": "8.8388",
    "geohash": "u1nq95k0quyu",
    "mosmix_id": null
  },
  "3031": {
    "name": "Lippstadt-B\u00f6kenf\u00f6rde",
    "latitude": "51.6336",
    "longitude": "8.3945",
    "geohash": "u1jvxp8ew08v",
    "mosmix_id": null
  },
  "3032": {
    "name": "List auf Sylt",
    "latitude": "55.0110",
    "longitude": "8.4125",
    "geohash": "u1vbzqmy33wt",
    "mosmix_id": null
  },
  "3034": {
    "name": "Lobenstein, Bad",
    "latitude": "50.4505",
    "longitude": "11.6350",
    "geohash": "u2br0b0r7nuf",
    "mosmix_id": null
  },
  "3042": {
    "name": "L\u00f6hnberg-Obershausen",
    "latitude": "50.5617",
    "longitude": "8.2386",
    "geohash": "u0vzekrpm212",
    "mosmix_id": null
  },
  "3044": {
    "name": "L\u00f6ningen",
    "latitude": "52.7198",
    "longitude": "7.7472",
    "geohash": "u1mebm374g50",
    "mosmix_id": "K1140"
  },
  "3083": {
    "name": "L\u00fcbben-Blumenfelde",
    "latitude": "51.9267",
    "longitude": "13.8797",
    "geohash": "u31z7ufyuqqq",
    "mosmix_id": "F742"
  },
  "3086": {
    "name": "L\u00fcbeck-Blankensee",
    "latitude": "53.8025",
    "longitude": "10.6988",
    "geohash": "u1xd56qwk0gm",
    "mosmix_id": null
  },
  "3093": {
    "name": "L\u00fcchow",
    "latitude": "52.9724",
    "longitude": "11.1374",
    "geohash": "u1rvm7q485p6",
    "mosmix_id": "10253"
  },
  "3098": {
    "name": "L\u00fcdenscheid",
    "latitude": "51.2452",
    "longitude": "7.6425",
    "geohash": "u1j7tbvhgjtj",
    "mosmix_id": "N8829"
  },
  "3126": {
    "name": "Magdeburg",
    "latitude": "52.1029",
    "longitude": "11.5827",
    "geohash": "u320rt432kx0",
    "mosmix_id": "10361"
  },
  "3137": {
    "name": "Mainz-Lerchenberg (ZDF)",
    "latitude": "49.9656",
    "longitude": "8.2139",
    "geohash": "u0vu4zvntwzv",
    "mosmix_id": null
  },
  "3147": {
    "name": "Mallersdorf-Pfaffenberg/Niederbayern",
    "latitude": "48.7726",
    "longitude": "12.2177",
    "geohash": "u28tqnb8vp97",
    "mosmix_id": null
  },
  "3155": {
    "name": "Manderscheid-Sonnenhof",
    "latitude": "50.1015",
    "longitude": "6.8009",
    "geohash": "u0uv4b8q2kw8",
    "mosmix_id": null
  },
  "3158": {
    "name": "Manschnow",
    "latitude": "52.5468",
    "longitude": "14.5452",
    "geohash": "u366fvz7r9rp",
    "mosmix_id": "10396"
  },
  "3164": {
    "name": "C\u00f6lbe, Kr. Marburg-Biedenkopf",
    "latitude": "50.8492",
    "longitude": "8.7746",
    "geohash": "u1n1r8v6nczv",
    "mosmix_id": null
  },
  "3166": {
    "name": "Marienberg",
    "latitude": "50.6510",
    "longitude": "13.1469",
    "geohash": "u3125htr2yz0",
    "mosmix_id": "10579"
  },
  "3167": {
    "name": "Marienberg, Bad",
    "latitude": "50.6620",
    "longitude": "7.9602",
    "geohash": "u1j8jnsrw173",
    "mosmix_id": null
  },
  "3196": {
    "name": "Marnitz",
    "latitude": "53.3223",
    "longitude": "11.9319",
    "geohash": "u32rre08cmjm",
    "mosmix_id": "10264"
  },
  "3204": {
    "name": "Martinroda",
    "latitude": "50.7334",
    "longitude": "10.8815",
    "geohash": "u1p8xeexmr4r",
    "mosmix_id": "M732"
  },
  "3226": {
    "name": "Aschersleben-Mehringen",
    "latitude": "51.7259",
    "longitude": "11.5109",
    "geohash": "u30nmbmvpqth",
    "mosmix_id": null
  },
  "3228": {
    "name": "Meinerzhagen (A)",
    "latitude": "51.0976",
    "longitude": "7.6670",
    "geohash": "u1j6wqncn518",
    "mosmix_id": null
  },
  "3231": {
    "name": "Meiningen",
    "latitude": "50.5612",
    "longitude": "10.3771",
    "geohash": "u0zrshkk7fyd",
    "mosmix_id": "10548"
  },
  "3234": {
    "name": "Garsebach bei Mei\u00dfen",
    "latitude": "51.1294",
    "longitude": "13.4327",
    "geohash": "u31dcev6kdgp",
    "mosmix_id": null
  },
  "3244": {
    "name": "Memmingen",
    "latitude": "47.9820",
    "longitude": "10.1384",
    "geohash": "u0x0ywye3v4f",
    "mosmix_id": "10947"
  },
  "3257": {
    "name": "Mergentheim, Bad-Neunkirchen",
    "latitude": "49.4773",
    "longitude": "9.7622",
    "geohash": "u0ycqphd5tpy",
    "mosmix_id": null
  },
  "3268": {
    "name": "Me\u00dfstetten-Appental",
    "latitude": "48.1694",
    "longitude": "8.9433",
    "geohash": "u0w658br1fzz",
    "mosmix_id": null
  },
  "3271": {
    "name": "Metten",
    "latitude": "48.8548",
    "longitude": "12.9189",
    "geohash": "u29jvvxrb4y1",
    "mosmix_id": "P572"
  },
  "3278": {
    "name": "Metzingen",
    "latitude": "48.5376",
    "longitude": "9.2733",
    "geohash": "u0ws5h08583t",
    "mosmix_id": "Q561"
  },
  "3284": {
    "name": "Michelstadt",
    "latitude": "49.6691",
    "longitude": "9.0085",
    "geohash": "u0y6sczz3r26",
    "mosmix_id": "K2507"
  },
  "3287": {
    "name": "Michelstadt-Vielbrunn",
    "latitude": "49.7176",
    "longitude": "9.0997",
    "geohash": "u0y6z4f4n2kh",
    "mosmix_id": null
  },
  "3289": {
    "name": "Schmieritz-Weltwitz",
    "latitude": "50.7281",
    "longitude": "11.7838",
    "geohash": "u302s4u8w7np",
    "mosmix_id": "M772"
  },
  "3307": {
    "name": "Mittenwald-Buckelwiesen",
    "latitude": "47.4779",
    "longitude": "11.2653",
    "geohash": "u22n0754ud09",
    "mosmix_id": null
  },
  "3319": {
    "name": "R\u00f6llbach",
    "latitude": "49.7644",
    "longitude": "9.2530",
    "geohash": "u0ye4e3fds8c",
    "mosmix_id": "P355"
  },
  "3340": {
    "name": "Montabaur",
    "latitude": "50.4383",
    "longitude": "7.8061",
    "geohash": "u0vwcwh0rkd5",
    "mosmix_id": "K282"
  },
  "3348": {
    "name": "Moringen-Lutterbeck",
    "latitude": "51.7209",
    "longitude": "9.8352",
    "geohash": "u1nypz9b0f8d",
    "mosmix_id": "E839"
  },
  "3362": {
    "name": "M\u00fchlacker",
    "latitude": "48.9721",
    "longitude": "8.8734",
    "geohash": "u0wq9gj7jjne",
    "mosmix_id": "10736"
  },
  "3366": {
    "name": "M\u00fchldorf",
    "latitude": "48.2791",
    "longitude": "12.5024",
    "geohash": "u28fskzyph91",
    "mosmix_id": "10875"
  },
  "3376": {
    "name": "M\u00fcncheberg",
    "latitude": "52.5176",
    "longitude": "14.1232",
    "geohash": "u364c2s1nqjn",
    "mosmix_id": "F475"
  },
  "3379": {
    "name": "M\u00fcnchen-Stadt",
    "latitude": "48.1631",
    "longitude": "11.5429",
    "geohash": "u281yxv63hd4",
    "mosmix_id": "10865"
  },
  "3402": {
    "name": "M\u00fcnsingen-Apfelstetten",
    "latitude": "48.3851",
    "longitude": "9.4837",
    "geohash": "u0werb1zdhrk",
    "mosmix_id": null
  },
  "3426": {
    "name": "Muskau, Bad",
    "latitude": "51.5660",
    "longitude": "14.7009",
    "geohash": "u34mqe2cez1e",
    "mosmix_id": null
  },
  "3442": {
    "name": "Nauheim, Bad",
    "latitude": "50.3574",
    "longitude": "8.7506",
    "geohash": "u0ynrp7cpg8r",
    "mosmix_id": null
  },
  "3485": {
    "name": "Neuburg/Kammel-Langenhaslach",
    "latitude": "48.3115",
    "longitude": "10.3773",
    "geohash": "u0x6u4udbs7d",
    "mosmix_id": null
  },
  "3490": {
    "name": "Neuenahr, Bad-Ahrweiler",
    "latitude": "50.5346",
    "longitude": "7.0853",
    "geohash": "u0vp3px37knw",
    "mosmix_id": null
  },
  "3509": {
    "name": "Menz",
    "latitude": "53.1020",
    "longitude": "13.0421",
    "geohash": "u33q0fbvwfq8",
    "mosmix_id": "F151"
  },
  "3513": {
    "name": "Neuhaus am Rennweg",
    "latitude": "50.5002",
    "longitude": "11.1344",
    "geohash": "u0zzm37bfrd7",
    "mosmix_id": null
  },
  "3527": {
    "name": "Neukirchen-Hauptschwenda",
    "latitude": "50.8923",
    "longitude": "9.4050",
    "geohash": "u1n9w08t0kk6",
    "mosmix_id": null
  },
  "3540": {
    "name": "Neunkirchen-Seelscheid-Krawinkel",
    "latitude": "50.8446",
    "longitude": "7.3720",
    "geohash": "u1j1pzbpk03t",
    "mosmix_id": null
  },
  "3545": {
    "name": "Neunkirchen-Wellesweiler",
    "latitude": "49.3440",
    "longitude": "7.2297",
    "geohash": "u0v0swb98hr1",
    "mosmix_id": null
  },
  "3552": {
    "name": "Neuruppin",
    "latitude": "52.9037",
    "longitude": "12.8072",
    "geohash": "u33hgqvfmkkq",
    "mosmix_id": "10270"
  },
  "3571": {
    "name": "Neustadt am Kulm-Filchendorf",
    "latitude": "49.8174",
    "longitude": "11.8638",
    "geohash": "u2b7muyzqs6q",
    "mosmix_id": null
  },
  "3591": {
    "name": "Nideggen-Schmidt",
    "latitude": "50.6743",
    "longitude": "6.4240",
    "geohash": "u1h860vz4n1t",
    "mosmix_id": "H827"
  },
  "3612": {
    "name": "Nienburg",
    "latitude": "52.6711",
    "longitude": "9.2229",
    "geohash": "u1qe9u7zmhst",
    "mosmix_id": "E652"
  },
  "3621": {
    "name": "Reimlingen",
    "latitude": "48.8253",
    "longitude": "10.5067",
    "geohash": "u0xmz06ezze7",
    "mosmix_id": "P501"
  },
  "3631": {
    "name": "Norderney",
    "latitude": "53.7123",
    "longitude": "7.1519",
    "geohash": "u1t1ddpbg67j",
    "mosmix_id": "10113"
  },
  "3660": {
    "name": "N\u00fcrburg-Barweiler",
    "latitude": "50.3601",
    "longitude": "6.8697",
    "geohash": "u0uykrf2ge59",
    "mosmix_id": "10506"
  },
  "3667": {
    "name": "N\u00fcrnberg-Netzstall",
    "latitude": "49.4258",
    "longitude": "11.2538",
    "geohash": "u2b10jdy0scm",
    "mosmix_id": "P333"
  },
  "3668": {
    "name": "N\u00fcrnberg",
    "latitude": "49.5030",
    "longitude": "11.0549",
    "geohash": "u0zcee9zvu4c",
    "mosmix_id": "10763"
  },
  "3679": {
    "name": "Kiefersfelden-Gach",
    "latitude": "47.6187",
    "longitude": "12.1665",
    "geohash": "u22wuuer5cpc",
    "mosmix_id": null
  },
  "3730": {
    "name": "Oberstdorf",
    "latitude": "47.3984",
    "longitude": "10.2759",
    "geohash": "u0rm9udety4m",
    "mosmix_id": "10948"
  },
  "3734": {
    "name": "Obersulm-Willsbach",
    "latitude": "49.1280",
    "longitude": "9.3525",
    "geohash": "u0wxkz6r34cr",
    "mosmix_id": "Q242"
  },
  "3739": {
    "name": "Oberviechtach",
    "latitude": "49.4521",
    "longitude": "12.4366",
    "geohash": "u2bc742p3g94",
    "mosmix_id": "K4484"
  },
  "3761": {
    "name": "\u00d6hringen",
    "latitude": "49.2070",
    "longitude": "9.5175",
    "geohash": "u0wzbtf7tcdk",
    "mosmix_id": null
  },
  "3775": {
    "name": "Offenbach/Main (Zentrallabor)",
    "latitude": "50.1029",
    "longitude": "8.7468",
    "geohash": "u0yjp0cnx1wb",
    "mosmix_id": null
  },
  "3791": {
    "name": "Oldenburg",
    "latitude": "53.1763",
    "longitude": "8.1824",
    "geohash": "u1myd0qnrsz9",
    "mosmix_id": "10215"
  },
  "3811": {
    "name": "Oschatz",
    "latitude": "51.2960",
    "longitude": "13.0928",
    "geohash": "u317cfjuu77q",
    "mosmix_id": "10480"
  },
  "3815": {
    "name": "Osnabr\u00fcck",
    "latitude": "52.2553",
    "longitude": "8.0534",
    "geohash": "u1m9r2b31vfq",
    "mosmix_id": "10317"
  },
  "3821": {
    "name": "Osterfeld",
    "latitude": "51.0873",
    "longitude": "11.9292",
    "geohash": "u306xknt4dbn",
    "mosmix_id": "N992"
  },
  "3836": {
    "name": "Ostheim v.d. Rh\u00f6n",
    "latitude": "50.4538",
    "longitude": "10.2211",
    "geohash": "u0zr08ff8yh8",
    "mosmix_id": "P022"
  },
  "3857": {
    "name": "Oy-Mittelberg-Petersthal",
    "latitude": "47.6362",
    "longitude": "10.3892",
    "geohash": "u0rqurvhvzkc",
    "mosmix_id": null
  },
  "3875": {
    "name": "Parsberg/Oberpfalz-Eglwang",
    "latitude": "49.1510",
    "longitude": "11.6896",
    "geohash": "u28rd58j76mx",
    "mosmix_id": null
  },
  "3897": {
    "name": "Pelzerhaken",
    "latitude": "54.0893",
    "longitude": "10.8773",
    "geohash": "u1xexw8t52qd",
    "mosmix_id": "10152"
  },
  "3904": {
    "name": "Perl-Nennig",
    "latitude": "49.5354",
    "longitude": "6.3789",
    "geohash": "u0u9c1sux5ud",
    "mosmix_id": "J702"
  },
  "3925": {
    "name": "Pforzheim-Ispringen",
    "latitude": "48.9329",
    "longitude": "8.6973",
    "geohash": "u0wnmgvnvc8y",
    "mosmix_id": "Q332"
  },
  "3927": {
    "name": "Pfullendorf",
    "latitude": "47.9344",
    "longitude": "9.2869",
    "geohash": "u0w8eq4w07y9",
    "mosmix_id": "Q864"
  },
  "3939": {
    "name": "Pirmasens",
    "latitude": "49.1912",
    "longitude": "7.5879",
    "geohash": "u0trudvrdbk3",
    "mosmix_id": "K2290"
  },
  "3946": {
    "name": "Plauen",
    "latitude": "50.4819",
    "longitude": "12.1300",
    "geohash": "u2bxhjby3kpx",
    "mosmix_id": "10569"
  },
  "3975": {
    "name": "Pommelsbrunn-Mittelburg",
    "latitude": "49.4777",
    "longitude": "11.5357",
    "geohash": "u2b1qx0h3rc2",
    "mosmix_id": null
  },
  "3987": {
    "name": "Potsdam",
    "latitude": "52.3813",
    "longitude": "13.0622",
    "geohash": "u333cpxx5q43",
    "mosmix_id": "10379"
  },
  "4024": {
    "name": "Putbus",
    "latitude": "54.3643",
    "longitude": "13.4771",
    "geohash": "u39t68txp0n1",
    "mosmix_id": "10093"
  },
  "4032": {
    "name": "Quedlinburg",
    "latitude": "51.7953",
    "longitude": "11.1320",
    "geohash": "u1pytm416rsz",
    "mosmix_id": "K3187"
  },
  "4036": {
    "name": "Querfurt-M\u00fchle Lodersleben",
    "latitude": "51.3895",
    "longitude": "11.5412",
    "geohash": "u30hqehj93nk",
    "mosmix_id": null
  },
  "4039": {
    "name": "Quickborn",
    "latitude": "53.7331",
    "longitude": "9.8776",
    "geohash": "u1x18vb9uzb6",
    "mosmix_id": "10146"
  },
  "4063": {
    "name": "Rahden-Kleinendorf",
    "latitude": "52.4461",
    "longitude": "8.5906",
    "geohash": "u1q477x2xmxs",
    "mosmix_id": null
  },
  "4094": {
    "name": "Weingarten, Kr. Ravensburg",
    "latitude": "47.8062",
    "longitude": "9.6206",
    "geohash": "u0qzfyve21x7",
    "mosmix_id": null
  },
  "4104": {
    "name": "Regensburg",
    "latitude": "49.0425",
    "longitude": "12.1019",
    "geohash": "u28wgrum68we",
    "mosmix_id": "10776"
  },
  "4127": {
    "name": "Reichshof-Eckenhagen",
    "latitude": "50.9906",
    "longitude": "7.6958",
    "geohash": "u1j6p4ecv0u2",
    "mosmix_id": "H612"
  },
  "4154": {
    "name": "Remscheid-Lennep",
    "latitude": "51.1800",
    "longitude": "7.2505",
    "geohash": "u1j5hvp9hgkx",
    "mosmix_id": "H642"
  },
  "4160": {
    "name": "Renningen-Ihinger Hof",
    "latitude": "48.7425",
    "longitude": "8.9240",
    "geohash": "u0wm71638k8d",
    "mosmix_id": null
  },
  "4169": {
    "name": "Rheinau-Memprechtshofen",
    "latitude": "48.6703",
    "longitude": "7.9939",
    "geohash": "u0tsvuhvp3eb",
    "mosmix_id": null
  },
  "4175": {
    "name": "Rheinfelden",
    "latitude": "47.5590",
    "longitude": "7.7721",
    "geohash": "u0mw8cg7r01v",
    "mosmix_id": "Q909"
  },
  "4177": {
    "name": "Rheinstetten",
    "latitude": "48.9726",
    "longitude": "8.3301",
    "geohash": "u0tyte1y16kf",
    "mosmix_id": "10731"
  },
  "4189": {
    "name": "Altheim, Kreis Biberach",
    "latitude": "48.1479",
    "longitude": "9.4596",
    "geohash": "u0w9zm03behf",
    "mosmix_id": null
  },
  "4261": {
    "name": "Rosenheim",
    "latitude": "47.8754",
    "longitude": "12.1280",
    "geohash": "u2887grq6vkm",
    "mosmix_id": "P877"
  },
  "4271": {
    "name": "Rostock-Warnem\u00fcnde",
    "latitude": "54.1803",
    "longitude": "12.0808",
    "geohash": "u38s4zhzp5cq",
    "mosmix_id": null
  },
  "4275": {
    "name": "Rotenburg (W\u00fcmme)",
    "latitude": "53.1288",
    "longitude": "9.3398",
    "geohash": "u1qwhxc19n5s",
    "mosmix_id": null
  },
  "4280": {
    "name": "Roth",
    "latitude": "49.2164",
    "longitude": "11.1036",
    "geohash": "u0xzuxt6k9uj",
    "mosmix_id": "10765"
  },
  "4287": {
    "name": "Rothenburg ob der Tauber",
    "latitude": "49.3848",
    "longitude": "10.1732",
    "geohash": "u0z0zqpzk9zw",
    "mosmix_id": null
  },
  "4300": {
    "name": "Rottweil",
    "latitude": "48.1814",
    "longitude": "8.6356",
    "geohash": "u0w4he0kbpfn",
    "mosmix_id": "K2757"
  },
  "4301": {
    "name": "Kreuznach, Bad",
    "latitude": "49.8502",
    "longitude": "7.8710",
    "geohash": "u0vee4gqrwfc",
    "mosmix_id": null
  },
  "4323": {
    "name": "Ruppertsecken",
    "latitude": "49.6468",
    "longitude": "7.8837",
    "geohash": "u0vd7mutxd2c",
    "mosmix_id": "K762"
  },
  "4336": {
    "name": "Saarbr\u00fccken-Ensheim",
    "latitude": "49.2128",
    "longitude": "7.1077",
    "geohash": "u0tpcwztm6v6",
    "mosmix_id": null
  },
  "4349": {
    "name": "Sachsenheim",
    "latitude": "48.9569",
    "longitude": "9.0710",
    "geohash": "u0wqw2m69eeg",
    "mosmix_id": "Q341"
  },
  "4354": {
    "name": "Saldenburg-Entschenreuth",
    "latitude": "48.7832",
    "longitude": "13.3146",
    "geohash": "u29mwbxqsxt7",
    "mosmix_id": null
  },
  "4371": {
    "name": "Salzuflen, Bad",
    "latitude": "52.1042",
    "longitude": "8.7521",
    "geohash": "u1q0rjm0fwyg",
    "mosmix_id": null
  },
  "4377": {
    "name": "Sandberg",
    "latitude": "50.3518",
    "longitude": "10.0034",
    "geohash": "u0zn7wk22pgd",
    "mosmix_id": "P013"
  },
  "4393": {
    "name": "Sankt Peter-Ording",
    "latitude": "54.3279",
    "longitude": "8.6031",
    "geohash": "u1wj5f0dfy86",
    "mosmix_id": null
  },
  "4411": {
    "name": "Schaafheim-Schlierbach",
    "latitude": "49.9195",
    "longitude": "8.9671",
    "geohash": "u0y7up9dht62",
    "mosmix_id": null
  },
  "4445": {
    "name": "Wernigerode-Schierke",
    "latitude": "51.7658",
    "longitude": "10.6533",
    "geohash": "u1pw6rtmxus1",
    "mosmix_id": null
  },
  "4464": {
    "name": "Schleiz",
    "latitude": "50.5679",
    "longitude": "11.8041",
    "geohash": "u2brste7r7yc",
    "mosmix_id": "M888"
  },
  "4466": {
    "name": "Schleswig",
    "latitude": "54.5275",
    "longitude": "9.5487",
    "geohash": "u1wy1q3jsydz",
    "mosmix_id": "10035"
  },
  "4480": {
    "name": "Schl\u00fcchtern-Herolz",
    "latitude": "50.3447",
    "longitude": "9.5534",
    "geohash": "u0yy3kux4k73",
    "mosmix_id": null
  },
  "4485": {
    "name": "Schmalkalden, Kurort",
    "latitude": "50.7250",
    "longitude": "10.4539",
    "geohash": "u1p2tfhq992g",
    "mosmix_id": null
  },
  "4501": {
    "name": "Schm\u00fccke",
    "latitude": "50.6546",
    "longitude": "10.7693",
    "geohash": "u1p8jj3uqvu4",
    "mosmix_id": "10552"
  },
  "4508": {
    "name": "Schneifelforsthaus",
    "latitude": "50.2968",
    "longitude": "6.4194",
    "geohash": "u0uw4h62ng5d",
    "mosmix_id": "K210"
  },
  "4548": {
    "name": "Selb/Oberfranken-Lauterbach",
    "latitude": "50.2046",
    "longitude": "12.1435",
    "geohash": "u2bts76wupcb",
    "mosmix_id": null
  },
  "4559": {
    "name": "Schorndorf-Kn\u00f6bling",
    "latitude": "49.1643",
    "longitude": "12.6175",
    "geohash": "u28zxn5fc1cc",
    "mosmix_id": "P463"
  },
  "4560": {
    "name": "Schotten",
    "latitude": "50.4925",
    "longitude": "9.1226",
    "geohash": "u0yrpxfu5upw",
    "mosmix_id": "L555"
  },
  "4592": {
    "name": "Schwandorf",
    "latitude": "49.3278",
    "longitude": "12.0870",
    "geohash": "u2b8e5c7r82k",
    "mosmix_id": "P0034"
  },
  "4605": {
    "name": "Schwarzburg",
    "latitude": "50.6441",
    "longitude": "11.1936",
    "geohash": "u1pbneqzmb3p",
    "mosmix_id": "M756"
  },
  "4625": {
    "name": "Schwerin",
    "latitude": "53.6425",
    "longitude": "11.3872",
    "geohash": "u3815j7fhyz8",
    "mosmix_id": "10162"
  },
  "4642": {
    "name": "Seehausen",
    "latitude": "52.8911",
    "longitude": "11.7297",
    "geohash": "u32kfut2czdj",
    "mosmix_id": "10261"
  },
  "4651": {
    "name": "Seesen",
    "latitude": "51.9040",
    "longitude": "10.1885",
    "geohash": "u1pprbg49qbh",
    "mosmix_id": "E864"
  },
  "4692": {
    "name": "Siegen (Kl\u00e4ranlage)",
    "latitude": "50.8534",
    "longitude": "7.9966",
    "geohash": "u1j9mcwfw2c5",
    "mosmix_id": null
  },
  "4703": {
    "name": "Sigmaringen-Laiz",
    "latitude": "48.0719",
    "longitude": "9.1942",
    "geohash": "u0w93ppp07sm",
    "mosmix_id": "Q788"
  },
  "4704": {
    "name": "Sigmarszell-Zeisertsweiler",
    "latitude": "47.5776",
    "longitude": "9.7404",
    "geohash": "u0qytthxxg2w",
    "mosmix_id": null
  },
  "4706": {
    "name": "Simbach/Inn",
    "latitude": "48.2719",
    "longitude": "13.0273",
    "geohash": "u29687whnn6g",
    "mosmix_id": "P794"
  },
  "4709": {
    "name": "Simmern-Wahlbach",
    "latitude": "49.9996",
    "longitude": "7.5981",
    "geohash": "u0vkkyhub8cz",
    "mosmix_id": "K471"
  },
  "4745": {
    "name": "Soltau",
    "latitude": "52.9604",
    "longitude": "9.7930",
    "geohash": "u1qvqc5h9qn5",
    "mosmix_id": "10235"
  },
  "4748": {
    "name": "Sondershausen",
    "latitude": "51.3520",
    "longitude": "10.9059",
    "geohash": "u1pu0hm7jfs7",
    "mosmix_id": "K3404"
  },
  "4763": {
    "name": "Sontra",
    "latitude": "51.0607",
    "longitude": "9.9266",
    "geohash": "u1p43zk64s37",
    "mosmix_id": "N0548"
  },
  "4841": {
    "name": "Steinau, Kr. Cuxhaven",
    "latitude": "53.6946",
    "longitude": "8.8735",
    "geohash": "u1w33yv3xwcj",
    "mosmix_id": null
  },
  "4857": {
    "name": "Mittelnkirchen-Hohenfelde",
    "latitude": "53.5534",
    "longitude": "9.6097",
    "geohash": "u1wbdtje4jrd",
    "mosmix_id": null
  },
  "4878": {
    "name": "Oberharz am Brocken-Stiege",
    "latitude": "51.6646",
    "longitude": "10.8811",
    "geohash": "u1ptzt72h52p",
    "mosmix_id": null
  },
  "4887": {
    "name": "St\u00f6tten",
    "latitude": "48.6657",
    "longitude": "9.8646",
    "geohash": "u0xhb7r4mb4b",
    "mosmix_id": "10836"
  },
  "4896": {
    "name": "Wagersrott",
    "latitude": "54.6654",
    "longitude": "9.8050",
    "geohash": "u1wyzpec111u",
    "mosmix_id": "A191"
  },
  "4911": {
    "name": "Straubing",
    "latitude": "48.8275",
    "longitude": "12.5598",
    "geohash": "u28vvbcbb99w",
    "mosmix_id": "10788"
  },
  "4926": {
    "name": "Stuttgart (Neckartal)",
    "latitude": "48.7896",
    "longitude": "9.2167",
    "geohash": "u0wt99zkh8ts",
    "mosmix_id": null
  },
  "4928": {
    "name": "Stuttgart (Schnarrenberg)",
    "latitude": "48.8281",
    "longitude": "9.2000",
    "geohash": "u0wtc2ghr991",
    "mosmix_id": null
  },
  "4931": {
    "name": "Stuttgart-Echterdingen",
    "latitude": "48.6883",
    "longitude": "9.2235",
    "geohash": "u0wsczkmghun",
    "mosmix_id": null
  },
  "4978": {
    "name": "Tann/Rh\u00f6n",
    "latitude": "50.6390",
    "longitude": "10.0228",
    "geohash": "u1p0h4d3s1v3",
    "mosmix_id": "L592"
  },
  "4997": {
    "name": "Starkenberg-Tegkwitz",
    "latitude": "50.9771",
    "longitude": "12.3419",
    "geohash": "u30f0b555h5w",
    "mosmix_id": null
  },
  "5009": {
    "name": "Teterow",
    "latitude": "53.7610",
    "longitude": "12.5574",
    "geohash": "u38cvfbh88u0",
    "mosmix_id": "10177"
  },
  "5014": {
    "name": "Worpswede-H\u00fcttenbusch",
    "latitude": "53.2758",
    "longitude": "8.9857",
    "geohash": "u1qrh6x4jbzt",
    "mosmix_id": null
  },
  "5017": {
    "name": "Teuschnitz",
    "latitude": "50.4002",
    "longitude": "11.3889",
    "geohash": "u2bnepj4kw5r",
    "mosmix_id": "P071"
  },
  "5029": {
    "name": "Tholey",
    "latitude": "49.4738",
    "longitude": "7.0386",
    "geohash": "u0v12nmmg2b8",
    "mosmix_id": "10706"
  },
  "5046": {
    "name": "Tirschenreuth-Loderm\u00fchl",
    "latitude": "49.8576",
    "longitude": "12.3542",
    "geohash": "u2bg9hk19dr0",
    "mosmix_id": null
  },
  "5064": {
    "name": "T\u00f6nisvorst",
    "latitude": "51.2897",
    "longitude": "6.4437",
    "geohash": "u1hef9h0jj4c",
    "mosmix_id": "H522"
  },
  "5097": {
    "name": "Tribsees",
    "latitude": "54.0661",
    "longitude": "12.7675",
    "geohash": "u395dd3jb7d1",
    "mosmix_id": "B258"
  },
  "5099": {
    "name": "Trier-Zewen",
    "latitude": "49.7326",
    "longitude": "6.6131",
    "geohash": "u0udymx92ksf",
    "mosmix_id": "K611"
  },
  "5100": {
    "name": "Trier-Petrisberg",
    "latitude": "49.7479",
    "longitude": "6.6582",
    "geohash": "u0uep826e29y",
    "mosmix_id": null
  },
  "5109": {
    "name": "Trollenhagen",
    "latitude": "53.5997",
    "longitude": "13.3039",
    "geohash": "u392ytx8gk6b",
    "mosmix_id": "10281"
  },
  "5111": {
    "name": "Trostberg",
    "latitude": "48.0311",
    "longitude": "12.5396",
    "geohash": "u28cjrg13vgr",
    "mosmix_id": "K4531"
  },
  "5133": {
    "name": "Twistetal-M\u00fchlhausen",
    "latitude": "51.3344",
    "longitude": "8.9132",
    "geohash": "u1nk4c4ks9ex",
    "mosmix_id": null
  },
  "5142": {
    "name": "Ueckerm\u00fcnde",
    "latitude": "53.7444",
    "longitude": "14.0697",
    "geohash": "u3d18pv5zf29",
    "mosmix_id": "10193"
  },
  "5146": {
    "name": "Uelzen",
    "latitude": "52.9414",
    "longitude": "10.5289",
    "geohash": "u1rmptdyj0kb",
    "mosmix_id": "K3883"
  },
  "5149": {
    "name": "Gollhofen",
    "latitude": "49.5741",
    "longitude": "10.1916",
    "geohash": "u0z4pbtq16pc",
    "mosmix_id": "P238"
  },
  "5155": {
    "name": "Ulm",
    "latitude": "48.3837",
    "longitude": "9.9524",
    "geohash": "u0x54rzp7xrk",
    "mosmix_id": "10838"
  },
  "5158": {
    "name": "Ummendorf",
    "latitude": "52.1601",
    "longitude": "11.1759",
    "geohash": "u1rbwr6n977h",
    "mosmix_id": "10356"
  },
  "5229": {
    "name": "Villingen-Schwenningen",
    "latitude": "48.0453",
    "longitude": "8.4608",
    "geohash": "u0w12d2unvjd",
    "mosmix_id": null
  },
  "5275": {
    "name": "Wagh\u00e4usel-Kirrlach",
    "latitude": "49.2445",
    "longitude": "8.5374",
    "geohash": "u0y04k8wpb4u",
    "mosmix_id": "Q104"
  },
  "5279": {
    "name": "Wahlsburg-Lippoldsberg",
    "latitude": "51.6194",
    "longitude": "9.5749",
    "geohash": "u1nv9vh0z3dg",
    "mosmix_id": null
  },
  "5280": {
    "name": "Wittenborn",
    "latitude": "53.9224",
    "longitude": "10.2267",
    "geohash": "u1x6b8qberuj",
    "mosmix_id": "A762"
  },
  "5300": {
    "name": "Waldems-Reinborn",
    "latitude": "50.2596",
    "longitude": "8.3607",
    "geohash": "u0vvym2p6ktb",
    "mosmix_id": "L722"
  },
  "5335": {
    "name": "Waltershausen",
    "latitude": "50.8963",
    "longitude": "10.5484",
    "geohash": "u1p9813h7tcp",
    "mosmix_id": "M520"
  },
  "5347": {
    "name": "Warburg",
    "latitude": "51.5040",
    "longitude": "9.1118",
    "geohash": "u1nmp250836x",
    "mosmix_id": "10435"
  },
  "5349": {
    "name": "Waren (M\u00fcritz)",
    "latitude": "53.5196",
    "longitude": "12.6654",
    "geohash": "u3902nywm0w9",
    "mosmix_id": null
  },
  "5371": {
    "name": "Wasserkuppe",
    "latitude": "50.4973",
    "longitude": "9.9428",
    "geohash": "u0zp62b0h4cp",
    "mosmix_id": "10544"
  },
  "5397": {
    "name": "Weiden",
    "latitude": "49.6663",
    "longitude": "12.1845",
    "geohash": "u2bdt32rpmme",
    "mosmix_id": "10688"
  },
  "5404": {
    "name": "Weihenstephan-D\u00fcrnast",
    "latitude": "48.4025",
    "longitude": "11.6946",
    "geohash": "u287657szzvz",
    "mosmix_id": null
  },
  "5424": {
    "name": "Weimar-Sch\u00f6ndorf",
    "latitude": "51.0177",
    "longitude": "11.3544",
    "geohash": "u3044rkp8sw6",
    "mosmix_id": "M448"
  },
  "5426": {
    "name": "Weinbiet",
    "latitude": "49.3758",
    "longitude": "8.1213",
    "geohash": "u0vbbu9fbh0p",
    "mosmix_id": "10724"
  },
  "5433": {
    "name": "Weiskirchen/Saar",
    "latitude": "49.5534",
    "longitude": "6.8120",
    "geohash": "u0ucghbm7p73",
    "mosmix_id": "J728"
  },
  "5440": {
    "name": "Wei\u00dfenburg-Emetzheim",
    "latitude": "49.0116",
    "longitude": "10.9308",
    "geohash": "u0xybdr9607n",
    "mosmix_id": null
  },
  "5467": {
    "name": "Wendelstein",
    "latitude": "47.7035",
    "longitude": "12.0119",
    "geohash": "u22x3k4v18cv",
    "mosmix_id": "10980"
  },
  "5480": {
    "name": "Werl",
    "latitude": "51.5763",
    "longitude": "7.8879",
    "geohash": "u1jt7mpv9rht",
    "mosmix_id": "10424"
  },
  "5490": {
    "name": "Wernigerode",
    "latitude": "51.8454",
    "longitude": "10.7686",
    "geohash": "u1pwvn1mqe41",
    "mosmix_id": "10454"
  },
  "5516": {
    "name": "Fehmarn",
    "latitude": "54.5284",
    "longitude": "11.0605",
    "geohash": "u1xy5ww4bq6x",
    "mosmix_id": null
  },
  "5538": {
    "name": "Wielenbach (Demollstr.)",
    "latitude": "47.8827",
    "longitude": "11.1576",
    "geohash": "u0xbmuu8yyjx",
    "mosmix_id": null
  },
  "5541": {
    "name": "Wiesbaden-Auringen",
    "latitude": "50.1320",
    "longitude": "8.3170",
    "geohash": "u0vvjq2204hs",
    "mosmix_id": "L821"
  },
  "5546": {
    "name": "Wiesenburg",
    "latitude": "52.1207",
    "longitude": "12.4585",
    "geohash": "u32be82104dy",
    "mosmix_id": "10368"
  },
  "5562": {
    "name": "Neubulach-Oberhaugstett",
    "latitude": "48.6516",
    "longitude": "8.6801",
    "geohash": "u0whv8b8hgxd",
    "mosmix_id": null
  },
  "5629": {
    "name": "Wittenberg",
    "latitude": "51.8892",
    "longitude": "12.6445",
    "geohash": "u30zpwpkqpyw",
    "mosmix_id": "10474"
  },
  "5643": {
    "name": "Wittstock-Rote M\u00fchle",
    "latitude": "53.1864",
    "longitude": "12.4949",
    "geohash": "u32ys6690r8d",
    "mosmix_id": null
  },
  "5664": {
    "name": "Wolfach",
    "latitude": "48.2953",
    "longitude": "8.2391",
    "geohash": "u0tferzs8bqn",
    "mosmix_id": "K2736"
  },
  "5676": {
    "name": "Wolfsburg (S\u00fcdwest)",
    "latitude": "52.3962",
    "longitude": "10.6892",
    "geohash": "u1rd54rturt5",
    "mosmix_id": "E790"
  },
  "5688": {
    "name": "Dachsberg-Wolpadingen",
    "latitude": "47.7003",
    "longitude": "8.1057",
    "geohash": "u0mz27w6kkru",
    "mosmix_id": null
  },
  "5692": {
    "name": "Worms",
    "latitude": "49.6051",
    "longitude": "8.3659",
    "geohash": "u0vfnq7fesg5",
    "mosmix_id": "K2635"
  },
  "5705": {
    "name": "W\u00fcrzburg",
    "latitude": "49.7703",
    "longitude": "9.9577",
    "geohash": "u0z54s6vp0r7",
    "mosmix_id": "10655"
  },
  "5717": {
    "name": "Wuppertal-Buchenhofen",
    "latitude": "51.2256",
    "longitude": "7.1052",
    "geohash": "u1j53tmfepvn",
    "mosmix_id": null
  },
  "5719": {
    "name": "Remscheid",
    "latitude": "51.2051",
    "longitude": "7.2000",
    "geohash": "u1j57cdgk4mp",
    "mosmix_id": "N8346"
  },
  "5731": {
    "name": "Wut\u00f6schingen-Ofteringen",
    "latitude": "47.6783",
    "longitude": "8.3801",
    "geohash": "u0mznxw4nrr3",
    "mosmix_id": null
  },
  "5745": {
    "name": "Zehdenick",
    "latitude": "52.9664",
    "longitude": "13.3268",
    "geohash": "u33mr60r8uw7",
    "mosmix_id": "N7142"
  },
  "5750": {
    "name": "Zeitz",
    "latitude": "51.0314",
    "longitude": "12.1495",
    "geohash": "u30dk3yzry7y",
    "mosmix_id": "N977"
  },
  "5779": {
    "name": "Zinnwald-Georgenfeld",
    "latitude": "50.7314",
    "longitude": "13.7516",
    "geohash": "u31b8gmegd2h",
    "mosmix_id": null
  },
  "5792": {
    "name": "Zugspitze",
    "latitude": "47.4209",
    "longitude": "10.9847",
    "geohash": "u0rvcbwyf03z",
    "mosmix_id": "10961"
  },
  "5797": {
    "name": "Lichtentanne",
    "latitude": "50.6878",
    "longitude": "12.4329",
    "geohash": "u30b6gmmgdf0",
    "mosmix_id": "O805"
  },
  "5800": {
    "name": "Zwiesel",
    "latitude": "49.0280",
    "longitude": "13.2385",
    "geohash": "u29qvjrbz3t5",
    "mosmix_id": "10796"
  },
  "5822": {
    "name": "Bassum",
    "latitude": "52.8630",
    "longitude": "8.6988",
    "geohash": "u1qhtzqm29rq",
    "mosmix_id": "E438"
  },
  "5825": {
    "name": "Berge",
    "latitude": "52.6198",
    "longitude": "12.7867",
    "geohash": "u3356gnux9wt",
    "mosmix_id": "F431"
  },
  "5839": {
    "name": "Emden",
    "latitude": "53.3881",
    "longitude": "7.2287",
    "geohash": "u1mpsrpb0zjm",
    "mosmix_id": "10203"
  },
  "5856": {
    "name": "F\u00fcrstenzell",
    "latitude": "48.5451",
    "longitude": "13.3531",
    "geohash": "u29kpv77ty91",
    "mosmix_id": "10895"
  },
  "5871": {
    "name": "Hahn",
    "latitude": "49.9462",
    "longitude": "7.2645",
    "geohash": "u0vhjk3veneb",
    "mosmix_id": "10616"
  },
  "5906": {
    "name": "Mannheim",
    "latitude": "49.5062",
    "longitude": "8.5585",
    "geohash": "u0y1du24e884",
    "mosmix_id": "10729"
  },
  "5930": {
    "name": "Sch\u00f6nhagen (Ostseebad)",
    "latitude": "54.6410",
    "longitude": "10.0238",
    "geohash": "u1xnu554gkxj",
    "mosmix_id": null
  },
  "5941": {
    "name": "Reit im Winkl",
    "latitude": "47.6754",
    "longitude": "12.4698",
    "geohash": "u22z5z01r6sy",
    "mosmix_id": "K4540"
  },
  "6093": {
    "name": "Wendisch Evern",
    "latitude": "53.2139",
    "longitude": "10.4704",
    "geohash": "u1rqwr236jbn",
    "mosmix_id": "E298"
  },
  "6105": {
    "name": "Ostenfeld (Rendsburg)",
    "latitude": "54.3194",
    "longitude": "9.8051",
    "geohash": "u1wvp0ec7qh6",
    "mosmix_id": null
  },
  "6109": {
    "name": "Grambow-Schwennenz",
    "latitude": "53.3837",
    "longitude": "14.3728",
    "geohash": "u36pxn1ywdbq",
    "mosmix_id": "B898"
  },
  "6129": {
    "name": "Sohland/Spree",
    "latitude": "51.0593",
    "longitude": "14.4266",
    "geohash": "u3462r11upks",
    "mosmix_id": "O484"
  },
  "6157": {
    "name": "Wangerland-Hooksiel",
    "latitude": "53.6410",
    "longitude": "8.0808",
    "geohash": "u1t9pvh32r1h",
    "mosmix_id": "E043"
  },
  "6158": {
    "name": "Weidenbach-Weiherschneidbach",
    "latitude": "49.2247",
    "longitude": "10.6084",
    "geohash": "u0z813hf9thm",
    "mosmix_id": null
  },
  "6159": {
    "name": "D\u00f6rpen",
    "latitude": "52.9542",
    "longitude": "7.3196",
    "geohash": "u1mjq81bx437",
    "mosmix_id": "K1091"
  },
  "6163": {
    "name": "D\u00f6rnick",
    "latitude": "54.1654",
    "longitude": "10.3519",
    "geohash": "u1xk5sd02f2h",
    "mosmix_id": "10150"
  },
  "6170": {
    "name": "Coschen",
    "latitude": "52.0192",
    "longitude": "14.7254",
    "geohash": "u34rzjf9y9wn",
    "mosmix_id": "F695"
  },
  "6182": {
    "name": "Mallersdorf-Pfaffenberg",
    "latitude": "48.7757",
    "longitude": "12.1743",
    "geohash": "u28tmp351c2p",
    "mosmix_id": null
  },
  "6186": {
    "name": "Nast\u00e4tten",
    "latitude": "50.1989",
    "longitude": "7.8651",
    "geohash": "u0vtdfrjy15w",
    "mosmix_id": "P0191"
  },
  "6197": {
    "name": "L\u00fcgde-Paenbruch",
    "latitude": "51.8664",
    "longitude": "9.2709",
    "geohash": "u1nx4cyzetsp",
    "mosmix_id": null
  },
  "6199": {
    "name": "Steinhagen-Negast",
    "latitude": "54.2484",
    "longitude": "13.0418",
    "geohash": "u39k8g8ezfwy",
    "mosmix_id": "B158"
  },
  "6217": {
    "name": "Saarbr\u00fccken-Burbach",
    "latitude": "49.2406",
    "longitude": "6.9351",
    "geohash": "u0ubjgczr91k",
    "mosmix_id": "J908"
  },
  "6258": {
    "name": "Friedrichshafen-Unterraderach",
    "latitude": "47.6845",
    "longitude": "9.4409",
    "geohash": "u0qxqbdwkgj6",
    "mosmix_id": null
  },
  "6259": {
    "name": "Gro\u00dferlach-Mannenweiler",
    "latitude": "49.0210",
    "longitude": "9.6032",
    "geohash": "u0wyfs0b4b8z",
    "mosmix_id": null
  },
  "6260": {
    "name": "Ingelfingen-Stachenhausen",
    "latitude": "49.3328",
    "longitude": "9.7040",
    "geohash": "u0ybsuf0rs6y",
    "mosmix_id": null
  },
  "6262": {
    "name": "Schw\u00e4bisch Gm\u00fcnd-Weiler",
    "latitude": "48.7695",
    "longitude": "9.8737",
    "geohash": "u0xj2wjycvsr",
    "mosmix_id": null
  },
  "6263": {
    "name": "Singen",
    "latitude": "47.7738",
    "longitude": "8.8219",
    "geohash": "u0qrb8zyt1v3",
    "mosmix_id": "P0257"
  },
  "6264": {
    "name": "Brilon-Th\u00fclen",
    "latitude": "51.4140",
    "longitude": "8.6500",
    "geohash": "u1nhkzdsr872",
    "mosmix_id": null
  },
  "6265": {
    "name": "Wusterwitz",
    "latitude": "52.3613",
    "longitude": "12.3867",
    "geohash": "u32ccu5dxjbb",
    "mosmix_id": "F419"
  },
  "6266": {
    "name": "Huy-Pabstorf",
    "latitude": "52.0304",
    "longitude": "10.9626",
    "geohash": "u1pzcryep1e1",
    "mosmix_id": null
  },
  "6272": {
    "name": "Moorgrund Gr\u00e4fen-Nitzendorf",
    "latitude": "50.8426",
    "longitude": "10.2518",
    "geohash": "u1p31r95s784",
    "mosmix_id": null
  },
  "6273": {
    "name": "Demker",
    "latitude": "52.5075",
    "longitude": "11.8551",
    "geohash": "u326ty8w7g7m",
    "mosmix_id": "N272"
  },
  "6275": {
    "name": "Notzingen",
    "latitude": "48.6705",
    "longitude": "9.4627",
    "geohash": "u0wszk4w0yu9",
    "mosmix_id": "Q061"
  },
  "6305": {
    "name": "M\u00fchlhausen/Th\u00fcringen-G\u00f6rmar",
    "latitude": "51.2061",
    "longitude": "10.4978",
    "geohash": "u1p7qcu30kzh",
    "mosmix_id": null
  },
  "6310": {
    "name": "Karlshagen",
    "latitude": "54.1049",
    "longitude": "13.8239",
    "geohash": "u39gf96rbhqu",
    "mosmix_id": "B382"
  },
  "6312": {
    "name": "Markt Erlbach-Mosbach",
    "latitude": "49.5314",
    "longitude": "10.6418",
    "geohash": "u0z9f0vj7fjj",
    "mosmix_id": null
  },
  "6314": {
    "name": "Nossen",
    "latitude": "51.0507",
    "longitude": "13.3003",
    "geohash": "u316qtkzzknr",
    "mosmix_id": "O536"
  },
  "6336": {
    "name": "Lohr/Main-Halsbach",
    "latitude": "50.0132",
    "longitude": "9.6540",
    "geohash": "u0yue8tu480n",
    "mosmix_id": "P113"
  },
  "6337": {
    "name": "L\u00fcdinghausen-Brochtrup",
    "latitude": "51.7663",
    "longitude": "7.5194",
    "geohash": "u1jq7pg2w9xp",
    "mosmix_id": null
  },
  "6344": {
    "name": "Runkel-Ennerich",
    "latitude": "50.3940",
    "longitude": "8.1423",
    "geohash": "u0vy9mcn366z",
    "mosmix_id": "L602"
  },
  "6346": {
    "name": "Maisach-Galgen",
    "latitude": "48.2070",
    "longitude": "11.2035",
    "geohash": "u0xfnzy4hkph",
    "mosmix_id": "P741"
  },
  "6347": {
    "name": "Schonungen-Mainberg",
    "latitude": "50.0579",
    "longitude": "10.2972",
    "geohash": "u0zkf2f0qhuu",
    "mosmix_id": "P131"
  },
  "7075": {
    "name": "Elsendorf-Horneck",
    "latitude": "48.7020",
    "longitude": "11.8493",
    "geohash": "u28mj9umswy6",
    "mosmix_id": "P548"
  },
  "7099": {
    "name": "Liebenburg-Othfresen",
    "latitude": "52.0111",
    "longitude": "10.3966",
    "geohash": "u1prus6dd7fb",
    "mosmix_id": "E871"
  },
  "7105": {
    "name": "Siegsdorf-H\u00f6ll",
    "latitude": "47.8350",
    "longitude": "12.6548",
    "geohash": "u28bpungn4qc",
    "mosmix_id": "P904"
  },
  "7106": {
    "name": "Bielefeld-Deppendorf",
    "latitude": "52.0714",
    "longitude": "8.4565",
    "geohash": "u1q00rmcfsx2",
    "mosmix_id": "H174"
  },
  "7187": {
    "name": "Freudenberg/Main-Boxtal",
    "latitude": "49.7636",
    "longitude": "9.4063",
    "geohash": "u0yen51myxms",
    "mosmix_id": null
  },
  "7298": {
    "name": "Hattstedt",
    "latitude": "54.5268",
    "longitude": "9.0425",
    "geohash": "u1wqjy299s0x",
    "mosmix_id": "A226"
  },
  "7319": {
    "name": "Donauw\u00f6rth-Osterweiler",
    "latitude": "48.7374",
    "longitude": "10.7393",
    "geohash": "u0xtk2k5gvf7",
    "mosmix_id": null
  },
  "7321": {
    "name": "Olbersleben",
    "latitude": "51.1507",
    "longitude": "11.3321",
    "geohash": "u304czey3jd4",
    "mosmix_id": "M299"
  },
  "7325": {
    "name": "Schneefernerhaus",
    "latitude": "47.4167",
    "longitude": "10.9794",
    "geohash": "u0rv9zfyq9d1",
    "mosmix_id": null
  },
  "7329": {
    "name": "Treuen",
    "latitude": "50.5467",
    "longitude": "12.2863",
    "geohash": "u2bxx9dxgec6",
    "mosmix_id": "O868"
  },
  "7330": {
    "name": "Arnsberg-Neheim",
    "latitude": "51.4633",
    "longitude": "7.9780",
    "geohash": "u1jsv897ky7y",
    "mosmix_id": "H572"
  },
  "7331": {
    "name": "Hermaringen-Allewind",
    "latitude": "48.6099",
    "longitude": "10.2674",
    "geohash": "u0xk99hmpy0k",
    "mosmix_id": "Q485"
  },
  "7341": {
    "name": "Offenbach-Wetterpark",
    "latitude": "50.0900",
    "longitude": "8.7862",
    "geohash": "u0yhzytgmkc8",
    "mosmix_id": "10641"
  },
  "7343": {
    "name": "Deutschneudorf-Br\u00fcderwiese",
    "latitude": "50.6199",
    "longitude": "13.4816",
    "geohash": "u2cxfz142139",
    "mosmix_id": null
  },
  "7350": {
    "name": "Prackenbach-Neuh\u00e4usl",
    "latitude": "49.1088",
    "longitude": "12.8231",
    "geohash": "u29p7gcrrzu6",
    "mosmix_id": null
  },
  "7351": {
    "name": "Feldberg/Mecklenburg",
    "latitude": "53.3175",
    "longitude": "13.4175",
    "geohash": "u33x364kfqmh",
    "mosmix_id": "10282"
  },
  "7364": {
    "name": "Je\u00dfnitz",
    "latitude": "51.6820",
    "longitude": "12.3042",
    "geohash": "u30wpbrtkxh6",
    "mosmix_id": "N566"
  },
  "7367": {
    "name": "Alfeld",
    "latitude": "51.9643",
    "longitude": "9.8072",
    "geohash": "u1nzx5v3urd7",
    "mosmix_id": "10442"
  },
  "7368": {
    "name": "Eisenach",
    "latitude": "51.0007",
    "longitude": "10.3621",
    "geohash": "u1p65u3kw7tc",
    "mosmix_id": "N9357"
  },
  "7369": {
    "name": "Feuchtwangen-Heilbronn",
    "latitude": "49.1623",
    "longitude": "10.3662",
    "geohash": "u0xrevsrjuyy",
    "mosmix_id": null
  },
  "7370": {
    "name": "Waldm\u00fcnchen",
    "latitude": "49.3910",
    "longitude": "12.6838",
    "geohash": "u2c0bxk53vwz",
    "mosmix_id": "N1201"
  },
  "7373": {
    "name": "Borkum-Flugplatz",
    "latitude": "53.5984",
    "longitude": "6.7024",
    "geohash": "u1sbbt2931zt",
    "mosmix_id": "E008"
  },
  "7374": {
    "name": "Ahaus",
    "latitude": "52.0814",
    "longitude": "6.9410",
    "geohash": "u1kbmcnk1h8s",
    "mosmix_id": "N3102"
  },
  "7389": {
    "name": "Heckelberg",
    "latitude": "52.7461",
    "longitude": "13.8427",
    "geohash": "u33u4fpuq39n",
    "mosmix_id": "F361"
  },
  "7393": {
    "name": "Hoyerswerda",
    "latitude": "51.4493",
    "longitude": "14.2533",
    "geohash": "u34hsq4cvuwv",
    "mosmix_id": "N3619"
  },
  "7394": {
    "name": "Wunsiedel-Sch\u00f6nbrunn",
    "latitude": "50.0315",
    "longitude": "11.9745",
    "geohash": "u2bs87zwd5d6",
    "mosmix_id": null
  },
  "7395": {
    "name": "Gottfrieding",
    "latitude": "48.6595",
    "longitude": "12.5388",
    "geohash": "u28uv64qphnz",
    "mosmix_id": "10872"
  },
  "7396": {
    "name": "Hoherodskopf/Vogelsberg",
    "latitude": "50.5084",
    "longitude": "9.2247",
    "geohash": "u0yx3fv0z04v",
    "mosmix_id": null
  },
  "7403": {
    "name": "Leutkirch-Herlazhofen",
    "latitude": "47.7955",
    "longitude": "10.0324",
    "geohash": "u0rpukckgygx",
    "mosmix_id": null
  },
  "7410": {
    "name": "Neu-Ulrichstein",
    "latitude": "50.7513",
    "longitude": "9.0224",
    "geohash": "u1n2tqczv0j0",
    "mosmix_id": "10537"
  },
  "7412": {
    "name": "Neuh\u00fctten/Spessart",
    "latitude": "50.0083",
    "longitude": "9.4239",
    "geohash": "u0ysqrwr2yc1",
    "mosmix_id": "10646"
  },
  "7419": {
    "name": "Langenwetzendorf-G\u00f6ttendorf",
    "latitude": "50.6610",
    "longitude": "12.0756",
    "geohash": "u3084y91tygu",
    "mosmix_id": null
  },
  "7420": {
    "name": "Naumburg/Saale-Kreipitzsch",
    "latitude": "51.1044",
    "longitude": "11.7112",
    "geohash": "u306drrbdwxs",
    "mosmix_id": null
  },
  "7424": {
    "name": "Piding",
    "latitude": "47.7724",
    "longitude": "12.9073",
    "geohash": "u23pv8wy3uu6",
    "mosmix_id": "P991"
  },
  "7427": {
    "name": "Padenstedt (Pony-Park)",
    "latitude": "54.0188",
    "longitude": "9.9255",
    "geohash": "u1x53cgd2fjj",
    "mosmix_id": null
  },
  "7428": {
    "name": "Veilsdorf",
    "latitude": "50.4167",
    "longitude": "10.8156",
    "geohash": "u0zwy45dtdpf",
    "mosmix_id": "M927"
  },
  "7431": {
    "name": "Oberhaching-Laufzorn",
    "latitude": "48.0130",
    "longitude": "11.5524",
    "geohash": "u281nukpyrvv",
    "mosmix_id": "P830"
  },
  "7432": {
    "name": "Wittingen-Vorhop",
    "latitude": "52.6423",
    "longitude": "10.6627",
    "geohash": "u1re6xhrdgvr",
    "mosmix_id": "E691"
  },
  "13670": {
    "name": "Duisburg-Baerl",
    "latitude": "51.5088",
    "longitude": "6.7018",
    "geohash": "u1hv08bhe222",
    "mosmix_id": "H419"
  },
  "13674": {
    "name": "Waibstadt",
    "latitude": "49.2943",
    "longitude": "8.9053",
    "geohash": "u0y26tu8he8c",
    "mosmix_id": "10733"
  },
  "13675": {
    "name": "Hameln-Hastenbeck",
    "latitude": "52.0818",
    "longitude": "9.4077",
    "geohash": "u1q8q14qrr1w",
    "mosmix_id": "E739"
  },
  "13696": {
    "name": "Waltrop-Abdinghof",
    "latitude": "51.5966",
    "longitude": "7.4049",
    "geohash": "u1jm88b5fxme",
    "mosmix_id": "H443"
  },
  "13700": {
    "name": "Gevelsberg-Oberbr\u00f6king",
    "latitude": "51.3329",
    "longitude": "7.3411",
    "geohash": "u1jhp0ceu40g",
    "mosmix_id": null
  },
  "13710": {
    "name": "Landshut-Reithof",
    "latitude": "48.5734",
    "longitude": "12.2576",
    "geohash": "u28sqft8wf11",
    "mosmix_id": "P655"
  },
  "13711": {
    "name": "Kr\u00f6lpa-Rockendorf",
    "latitude": "50.6819",
    "longitude": "11.5150",
    "geohash": "u300q42gqyym",
    "mosmix_id": null
  },
  "13713": {
    "name": "Meinerzhagen-Redlendorf",
    "latitude": "51.0899",
    "longitude": "7.6290",
    "geohash": "u1j6tsek0xds",
    "mosmix_id": null
  },
  "13776": {
    "name": "Hildesheim-Drispenstedt",
    "latitude": "52.1789",
    "longitude": "9.9524",
    "geohash": "u1r0f6zh5ezq",
    "mosmix_id": null
  },
  "13777": {
    "name": "Helmstedt-Emmerstedt",
    "latitude": "52.2467",
    "longitude": "10.9592",
    "geohash": "u1rc1rhppfgc",
    "mosmix_id": null
  },
  "13965": {
    "name": "Balingen-Bronnhaupten",
    "latitude": "48.2639",
    "longitude": "8.8134",
    "geohash": "u0w68d1tx553",
    "mosmix_id": null
  },
  "14138": {
    "name": "Falkenberg (Grenzschichtmessfeld)",
    "latitude": "52.1655",
    "longitude": "14.1224",
    "geohash": "u360c27w5f08",
    "mosmix_id": null
  },
  "15000": {
    "name": "Aachen-Orsbach",
    "latitude": "50.7983",
    "longitude": "6.0244",
    "geohash": "u1h2cpdcd9qn",
    "mosmix_id": "10505"
  },
  "15207": {
    "name": "Schauenburg-Elgershausen",
    "latitude": "51.2835",
    "longitude": "9.3590",
    "geohash": "u1neszzh0921",
    "mosmix_id": null
  },
  "15444": {
    "name": "Ulm-M\u00e4hringen",
    "latitude": "48.4418",
    "longitude": "9.9216",
    "geohash": "u0x59f89yn10",
    "mosmix_id": "10840"
  },
  "15555": {
    "name": "Kaufbeuren-Oberbeuren",
    "latitude": "47.8761",
    "longitude": "10.5848",
    "geohash": "u0x82ged7xyu",
    "mosmix_id": null
  }
}
